<svg xmlns="http://www.w3.org/2000/svg" style="margin:auto;background:0 0" width="204" height="204"
    viewBox="0 0 100 100" preserveAspectRatio="xMidYMid" display="block">
    <path d="M24.79 75.825a35 35 0 0 0 48.247-50.718A38 35 43.57 0 1 24.79 75.825" fill="#00a0af"></path>
</svg>