<svg width="24" height="24" viewBox="0 0 24 24" fill="none" xmlns="http://www.w3.org/2000/svg">
<path d="M15.667 19.3333L23.0003 12L15.667 4.66663" stroke-width="1.6" stroke-linecap="round" stroke-linejoin="round"/>
<path d="M1 12L23 12" stroke-width="1.6" stroke-linecap="round" stroke-linejoin="round"/>
</svg>
