<svg width="40" height="41" viewBox="0 0 40 41" xmlns="http://www.w3.org/2000/svg">
<path d="M4.83722 4.88379H6.32559C6.32559 4.88379 6.69768 5.25588 6.69768 6.00007C6.69768 6.74425 6.32559 7.11635 6.32559 7.11635H4.83722V4.88379Z"/>
<path d="M7.81396 4.88379H9.30234C9.30234 4.88379 9.67443 5.25588 9.67443 6.00007C9.67443 6.74425 9.30234 7.11635 9.30234 7.11635H7.81396V4.88379Z"/>
<path d="M32.3721 4.88379H33.8604C33.8604 4.88379 34.2325 5.25588 34.2325 6.00007C34.2325 6.74425 33.8604 7.11635 33.8604 7.11635H32.3721V4.88379Z"/>
<path d="M31.6279 33.907L31.6279 31.9721C31.6279 31.9721 31.8759 31.6744 32.3721 31.6744C32.8682 31.6744 33.1162 31.9721 33.1162 31.9721L33.1162 33.907L31.6279 33.907Z"/>
<path d="M10.7907 4.88379H30.5116C30.5116 4.88379 30.8837 5.25588 30.8837 6.00007C30.8837 6.74425 30.5116 7.11635 30.5116 7.11635H10.7907V4.88379Z"/>
<rect x="6.32562" y="8.60474" width="23.0698" height="24.5581"/>
<rect x="6.32562" y="34.6512" width="23.0698" height="2.23256"/>
<circle cx="32.3721" cy="9.34892" r="0.744186"/>
<circle cx="32.3721" cy="11.5816" r="0.744186"/>
<circle cx="32.3721" cy="13.814" r="0.744186"/>
<circle cx="32.3721" cy="16.0466" r="0.744186"/>
<circle cx="32.3721" cy="18.2791" r="0.744186"/>
<circle cx="32.3721" cy="20.5118" r="0.744186"/>
<circle cx="32.3721" cy="22.7442" r="0.744186"/>
<circle cx="32.3721" cy="24.9769" r="0.744186"/>
<circle cx="32.3721" cy="27.2094" r="0.744186"/>
<circle cx="32.3721" cy="29.4419" r="0.744186"/>
</svg>
