<svg width="16" height="16" viewBox="0 0 16 16" xmlns="http://www.w3.org/2000/svg">
<path fill-rule="evenodd" fill="currentColor" clip-rule="evenodd" d="M7.45636 2.85342C8.99905 1.01492 11.7224 0.736729 13.4478 2.24141C15.1732 3.7461 15.3254 6.53209 13.7827 8.3706L8.38328 14.8054C7.25197 16.1536 5.29114 16.3539 4.02587 15.2505C2.76061 14.147 2.651 12.1411 3.78231 10.7929L8.15327 5.58378C8.87319 4.72581 10.0715 4.60341 10.8766 5.30559C11.6818 6.00778 11.7488 7.23361 11.0289 8.09158L7.17215 12.6878L6.30946 11.9355L10.1662 7.33924C10.4747 6.97154 10.4504 6.52578 10.1053 6.22484C9.76023 5.92391 9.32449 5.96842 9.01595 6.33612L4.64499 11.5452C3.92507 12.4032 3.99205 13.629 4.79722 14.3312C5.60239 15.0334 6.80068 14.911 7.5206 14.053L12.92 7.61825C14.0513 6.27002 13.9417 4.2641 12.6764 3.16067C11.4112 2.05723 9.45035 2.25753 8.31904 3.60576L3.43386 9.4277L2.57118 8.67536L7.45636 2.85342Z" />
</svg>
