<svg width="38" height="38" viewBox="0 0 38 38" fill="none" xmlns="http://www.w3.org/2000/svg">
<path d="M34.5554 5H3.44434L15.8888 19.7156V29.8889L22.111 33V19.7156L34.5554 5Z" stroke-linecap="round" stroke-linejoin="round"/>
</svg>
