<svg width="29" height="22" viewBox="0 0 29 22" fill="none" xmlns="http://www.w3.org/2000/svg">
<path d="M1.07692 0.287514H22.9231C22.9231 0.287514 22.9231 0.95418 23.4615 1.62085C24 2.28751 24 2.28751 24 2.28751H0C0 2.28751 0 2.28751 0.538462 1.62085C1.07692 0.95418 1.07692 0.287514 1.07692 0.287514Z" fill="#0A2341"/>
<path d="M1.07692 6.28751H22.9231C22.9231 6.28751 22.9231 6.95418 23.4615 7.62085C24 8.28751 24 8.28751 24 8.28751H0C0 8.28751 0 8.28751 0.538462 7.62085C1.07692 6.95418 1.07692 6.28751 1.07692 6.28751Z" fill="#0A2341"/>
<path d="M1.07692 12.2875H22.9231C22.9231 12.2875 22.9231 12.9542 23.4615 13.6208C24 14.2875 24 14.2875 24 14.2875H0C0 14.2875 0 14.2875 0.538462 13.6208C1.07692 12.9542 1.07692 12.2875 1.07692 12.2875Z" fill="#0A2341"/>
<path d="M1.07692 18.2875H22.9231C22.9231 18.2875 22.9231 18.9542 23.4615 19.6208C24 20.2875 24 20.2875 24 20.2875H0C0 20.2875 0 20.2875 0.538462 19.6208C1.07692 18.9542 1.07692 18.2875 1.07692 18.2875Z" fill="#0A2341"/>
<path d="M27 18.2875C27 17.7352 27.4477 17.2875 28 17.2875C28.5523 17.2875 29 17.7352 29 18.2875V20.2875C29 20.8398 28.5523 21.2875 28 21.2875C27.4477 21.2875 27 20.8398 27 20.2875V18.2875Z" fill="#0A2341"/>
<path d="M27.5 0.5C27.5 0.223857 27.7239 0 28 0C28.2761 0 28.5 0.223858 28.5 0.5V14.077C28.5 14.3531 28.2761 14.577 28 14.577C27.7239 14.577 27.5 14.3531 27.5 14.077V0.5Z" fill="#0A2341"/>
</svg>
