<svg width="24" height="25" viewBox="0 0 24 25" fill="none" xmlns="http://www.w3.org/2000/svg">
<path fill-rule="evenodd" clip-rule="evenodd" d="M12.3925 2.23107C17.2182 2.25207 19.3826 3.82281 19.9173 4.31542C21.6943 5.86084 22.6797 9.28009 22.0144 14.6953C21.426 19.5189 17.8918 20.3849 16.9155 20.6241C16.8298 20.6451 16.7638 20.6612 16.7213 20.6748C16.4181 20.7716 13.761 21.437 10.2996 21.1464C9.91644 21.5886 9.41118 22.1697 9.0448 22.5655C8.93387 22.6848 8.82999 22.8027 8.73069 22.9155C8.23068 23.4831 7.84682 23.9188 7.2636 23.7361C6.68254 23.5592 6.71619 22.6792 6.71619 22.6792L6.72036 20.5064H6.71619C1.65889 19.083 1.73047 13.8363 1.78944 11.036C1.84841 8.23581 2.3916 5.97451 3.9328 4.4334C6.70358 1.89001 12.3925 2.23107 12.3925 2.23107ZM16.4138 19.0832C17.3662 18.8609 20.0134 18.2431 20.5025 14.2997C21.0626 9.78143 20.2962 6.69902 18.7929 5.41048C18.3381 4.99779 16.3843 3.76826 12.3039 3.75143C12.3039 3.75143 7.47402 3.43559 5.12853 5.56212C3.82316 6.85062 3.38099 8.76659 3.33467 11.1036C3.33308 11.184 3.33124 11.2669 3.32935 11.3521C3.27635 13.7441 3.18317 17.9492 7.32242 19.0959C7.3182 19.0959 7.64427 19.1464 7.64849 19.1464V21.9971C7.64427 22.4392 7.88849 22.4603 8.11167 22.2372C8.79384 21.5507 9.98413 19.4971 9.98413 19.4971C12.9191 19.6865 15.9126 19.2264 16.1653 19.1464C16.224 19.1275 16.3085 19.1078 16.4138 19.0832Z" fill="currentColor"/>
<path d="M14.6493 10.8977C14.6661 11.2598 14.123 11.2851 14.1061 10.9229C14.0598 9.99649 13.626 9.54598 12.7334 9.49545C12.3712 9.47435 12.4049 8.93117 12.7628 8.95226C13.9377 9.0154 14.5904 9.68913 14.6493 10.8977Z" fill="currentColor"/>
<path d="M15.5047 11.373C15.5467 9.5876 14.4309 8.1896 12.3127 8.03384C11.9548 8.00857 11.9927 7.46533 12.3507 7.4906C14.793 7.66751 16.0942 9.34765 16.0478 11.3857C16.0436 11.7478 15.4962 11.731 15.5047 11.373Z" fill="currentColor"/>
<path d="M17.4834 11.9377C17.4876 12.2999 16.9402 12.304 16.9402 11.9419C16.9149 8.51006 14.6285 6.64041 11.8534 6.61936C11.4955 6.61514 11.4955 6.07617 11.8534 6.07617C14.9569 6.09722 17.4539 8.24053 17.4834 11.9377Z" fill="currentColor"/>
<path d="M17.0074 16.0686V16.0771C16.5526 16.8771 15.702 17.7615 14.8261 17.4793L14.8177 17.4666C13.9292 17.2182 11.8364 16.1403 10.5142 15.0875C9.83203 14.5485 9.20878 13.9127 8.72873 13.3021C8.29505 12.7588 7.85714 12.1145 7.43185 11.3398C6.53494 9.71857 6.33703 8.99431 6.33703 8.99431C6.05489 8.11845 6.93497 7.26781 7.7392 6.81307H7.74769C8.13506 6.6109 8.50561 6.67831 8.75405 6.97723C8.75405 6.97723 9.27623 7.60038 9.49936 7.90788C9.70992 8.1942 9.99206 8.65315 10.1394 8.91003C10.3963 9.36898 10.2362 9.83642 9.98362 10.0301L9.47831 10.4344C9.22148 10.6407 9.25514 11.0239 9.25514 11.0239C9.25514 11.0239 10.0047 13.8578 12.8049 14.5737C12.8049 14.5737 13.1882 14.6074 13.3944 14.3505L13.7987 13.8452C13.9924 13.5926 14.4599 13.4326 14.9188 13.6894C15.5378 14.0389 16.3252 14.5821 16.8474 15.0748C17.1421 15.3148 17.2095 15.6813 17.0074 16.0686Z" fill="currentColor"/>
</svg>
