<svg width="152" height="109" viewBox="0 0 152 109" fill="none" xmlns="http://www.w3.org/2000/svg">
<path d="M64.7499 57.9053C62.9499 61.8053 58.9499 69.5052 54.2499 70.6052C52.7499 71.0052 53.0499 68.9053 53.0499 68.9053C56.4499 58.6053 56.7499 57.6052 56.7499 57.5052C56.7499 57.2052 56.4499 57.4052 56.1499 57.5052C53.5499 59.3052 49.9498 66.3052 49.9498 66.3052C48.9498 68.4052 48.3498 69.2052 47.8498 69.5052C46.9498 70.1052 46.0499 69.4052 46.0499 68.0052C46.0499 64.6052 46.7498 60.5052 47.9498 56.3052C45.4498 58.0052 42.0498 58.3052 39.8498 55.8052C36.5498 56.5052 33.3498 56.6052 29.9498 57.3052C26.6498 57.9052 22.2499 60.2053 23.1499 64.4053C23.6499 65.7053 24.9499 67.5052 26.6499 66.8052C27.3499 66.5052 28.3499 65.6052 27.6499 64.8052C27.3499 64.5052 26.9499 64.2053 26.5499 64.4053C26.5499 64.4053 26.5498 64.4053 26.4498 64.4053C26.0498 64.7053 25.4499 64.7052 25.0499 64.3052C24.7499 63.9052 24.8499 63.3052 25.2499 63.0052C25.8499 62.5052 26.7499 63.0052 27.2499 63.3052C27.6499 63.5052 27.9499 63.9052 28.2499 64.2052C29.2499 65.4052 28.3499 66.9052 27.0499 67.5052C25.0499 68.6052 22.9498 66.6052 22.3498 64.7052C20.9498 60.2052 26.1499 57.3052 29.7499 56.6052C32.9499 56.0052 36.1498 55.7052 39.3498 55.2052C38.9498 54.3052 39.0498 52.9052 39.9498 52.2052C40.3498 51.9052 40.8498 51.7052 41.3498 51.8052C41.9498 51.9052 42.3498 52.3052 42.5499 52.8052C42.7499 54.2052 41.7499 55.1052 40.5499 55.6052C42.8498 57.8052 46.2498 57.0052 48.3498 54.8052C50.0498 49.4052 52.5498 44.1052 55.4498 40.5052C56.6498 39.0052 59.4499 35.8052 61.7499 36.7052C62.3499 37.1052 62.6499 37.6052 62.7499 38.1052C63.2499 40.2052 59.8498 45.5052 51.8498 55.5052C50.9498 58.4052 50.5499 59.9052 50.0499 61.3052C50.0499 61.3052 49.6498 62.8052 50.4498 61.8052C52.1498 59.4052 54.9498 55.3052 57.9498 56.0052C58.7498 56.2052 59.5498 57.4052 57.9498 62.2052C56.0498 68.0052 55.9498 68.4052 56.3498 68.2052C57.1498 67.7052 57.7498 67.1052 58.4498 66.5052C61.6498 63.2052 63.7499 57.9053 63.7499 57.9053H64.7499ZM40.1499 55.0052C40.9499 54.8052 41.7498 54.3053 41.8498 53.4053C42.0498 52.5053 41.1498 52.2052 40.4498 52.7052C39.8498 53.2052 39.7499 54.3052 40.1499 55.0052ZM52.7499 52.7052C55.7499 48.8052 58.8498 44.9052 61.0499 40.2052C62.5499 36.9052 59.6499 37.5052 58.1499 40.5052C56.3499 43.5052 55.0499 46.6052 52.7499 52.7052Z" fill="#0A2341"/>
<path d="M80.8495 57.9055C80.8495 57.9055 78.1495 64.6054 74.8495 66.7054C73.6495 67.4054 72.4496 67.6054 71.2496 66.7054C69.3496 69.4054 67.0495 70.6054 64.9495 70.5054C58.9495 69.9054 61.2496 61.6054 61.2496 61.6054C62.0496 59.2054 63.7495 55.6054 66.8495 53.5054C67.3495 53.3054 68.7495 53.2054 68.8495 54.0054C68.6495 54.6054 60.5496 64.1054 65.1496 68.5054C65.1496 68.5054 66.8495 69.8054 70.3495 65.7054C67.2495 61.5054 69.3495 56.6054 69.3495 56.6054C70.3495 53.7054 73.6495 50.9054 74.9495 55.5054C75.4495 58.9054 73.9495 62.4054 71.8495 65.7054C71.9495 65.8054 72.0495 65.8055 72.0495 65.9055C72.9495 66.4055 75.9495 67.3055 79.9495 57.7054H80.8495V57.9055ZM73.3495 59.1054C73.6495 57.3054 74.2495 54.9054 72.3495 54.6054C71.9495 54.6054 71.5496 54.9055 71.2496 55.3055C67.7496 60.5055 70.9495 65.0054 70.9495 65.0054C71.9495 63.8054 72.8495 60.6054 73.3495 59.1054Z" fill="#0A2341"/>
<path d="M87.9502 57.7052L88.6502 58.2052C87.7502 60.4052 86.6502 63.0052 85.3502 65.3052C84.8502 66.1052 82.4502 70.0052 79.8502 69.4052C79.6502 69.3052 79.4502 69.3052 79.3502 69.1052C78.7502 68.7052 78.2502 67.8052 78.0502 66.2052C77.9502 65.7052 77.9502 65.2052 77.9502 64.7052C77.9502 64.6052 77.9502 64.5052 77.9502 64.3052C77.9502 56.8052 85.0502 36.8052 91.6502 38.7052C96.4502 39.9052 85.1502 51.9052 83.1502 54.7052C82.2502 58.3052 80.8502 61.3052 80.3502 65.1052C80.3502 65.1052 80.3502 65.2052 80.3502 65.5052C80.3502 65.5052 80.3502 65.7052 80.3502 66.0052C80.3502 66.6052 80.5502 67.5052 81.0502 67.8052C82.2502 68.2052 83.8502 66.1052 84.6502 64.7052C84.8502 64.3052 85.0502 64.0052 85.2502 63.6052C86.3502 61.4052 87.4502 59.0052 87.9502 57.7052ZM83.7502 52.4052C87.3502 47.8052 88.4502 46.1052 89.3502 44.8052C89.7502 44.1052 91.4502 41.3052 91.2502 40.4052C90.5502 39.1052 88.7502 40.6052 85.3502 48.1052C84.4502 50.0052 83.8502 52.0052 83.7502 52.4052Z" fill="#0A2341"/>
<path d="M96.75 57.7052L97.45 58.2052C95.05 64.3052 90.65 73.1052 86.95 70.3052C85.95 69.6052 85.75 67.9052 85.75 66.2052C85.75 57.4052 94.05 34.0052 101.75 36.2052C107.35 37.6052 94.15 51.6052 91.75 54.9052C90.65 59.1052 89.05 62.6052 88.45 67.1052C88.45 67.1052 88.05 69.4052 89.45 69.2052C91.85 68.3052 95.75 60.6052 96.75 57.7052ZM94.65 47.1052C93.65 49.4052 92.85 51.7052 92.75 52.2052C96.95 46.8052 98.35 44.8052 99.35 43.3052C99.85 42.4052 101.75 39.2052 101.65 38.1052C100.65 36.6052 98.55 38.3052 94.65 47.1052Z" fill="#0A2341"/>
<path d="M134.149 50.1053C133.149 53.5053 129.649 54.9053 126.249 55.3053C123.049 55.7053 119.749 55.6053 116.549 56.1053C116.949 57.0053 116.749 58.4053 115.849 59.1053C115.449 59.4053 114.949 59.5053 114.449 59.5053C113.849 59.4053 113.449 59.0053 113.349 58.4053C113.249 57.7053 113.549 56.9053 114.149 56.4053C114.549 56.0053 115.049 55.8053 115.549 55.7053C114.049 54.1053 111.749 53.7053 109.649 54.7053C107.849 55.5053 107.049 56.6053 106.249 58.1053C104.449 62.3053 99.8495 72.7053 95.6495 70.1053C94.8495 69.6053 94.5495 68.4053 94.4495 67.1053C94.3495 64.7053 94.9495 61.7053 95.5495 59.4053C96.4495 56.6053 96.3495 56.8053 97.3495 53.9053C97.8495 52.5053 99.1495 52.6053 99.7495 52.9053C100.649 53.2053 100.549 54.2053 100.349 54.9053C98.8495 60.4053 98.0495 61.3053 97.1495 66.9053C97.1495 66.9053 96.7495 69.2053 98.1495 69.0053C100.649 68.2053 103.949 60.5053 105.549 57.4053C107.349 54.0053 112.149 52.0053 115.349 54.7053C115.649 54.9053 115.949 55.2053 116.149 55.6053C119.349 55.0053 122.649 55.1053 126.049 54.7053C128.949 54.3053 132.349 53.1053 133.249 49.9053C133.749 48.2053 132.349 44.6053 129.949 45.4053C129.249 45.6053 128.249 46.5053 128.849 47.4053C129.049 47.7053 129.549 48.0053 129.949 47.8053C130.449 47.5053 130.949 47.5053 131.349 48.0053C131.649 48.4053 131.549 49.0053 131.049 49.3053C130.449 49.7053 129.649 49.2053 129.049 48.9053C128.749 48.7053 128.349 48.3053 128.149 48.0053C127.249 46.7053 128.249 45.2053 129.549 44.7053C132.649 43.5053 134.949 47.4053 134.149 50.1053ZM98.4495 50.0053C98.7495 49.0053 99.8495 48.2053 100.949 48.2053C101.949 48.2053 102.449 49.0053 102.149 50.0053C101.849 51.0053 100.749 51.9053 99.6495 51.9053C98.6495 51.8053 98.1495 51.0053 98.4495 50.0053ZM115.949 56.4053C115.149 56.6053 113.249 57.9053 114.249 58.7053C114.549 59.0053 115.149 58.8053 115.449 58.6053C116.149 58.1053 116.149 57.1053 115.949 56.4053Z" fill="#0A2341"/>
<path d="M34.7501 48.5051C34.3501 48.5051 34.1501 48.2051 34.2501 47.9051C37.3501 26.7051 55.9501 10.7051 77.4501 10.7051C98.9501 10.7051 117.45 26.7051 120.65 47.9051C120.65 48.2051 120.45 48.5051 120.15 48.5051C119.85 48.5051 119.55 48.3051 119.55 48.0051C116.45 27.3051 98.3501 11.7051 77.4501 11.7051C56.4501 11.7051 38.3501 27.3051 35.3501 48.0051C35.2501 48.3051 35.0501 48.5051 34.7501 48.5051Z" fill="#0A2341"/>
<path d="M77.4496 97.9052C55.9496 97.9052 37.7496 82.5052 34.3496 61.3052C34.3496 61.0052 34.5496 60.7052 34.7496 60.7052C35.0496 60.6052 35.3496 60.9052 35.3496 61.1052C38.6496 81.8052 56.3496 96.8052 77.3496 96.8052C98.3496 96.8052 115.95 81.8052 119.35 61.1052C119.35 60.8052 119.65 60.6052 119.95 60.7052C120.25 60.7052 120.45 61.0052 120.35 61.3052C117.05 82.5052 98.9496 97.9052 77.4496 97.9052Z" fill="#0A2341"/>
<path d="M39.5495 44.7054H39.4494C39.1494 44.6054 38.9495 44.3054 39.0495 44.0054C43.6495 26.6054 59.4494 14.5054 77.4494 14.5054C95.4494 14.5054 111.249 26.6054 115.849 44.0054C115.949 44.3054 115.749 44.6054 115.449 44.7054C115.149 44.8054 114.849 44.6054 114.749 44.3054C110.249 27.4054 94.9494 15.6054 77.4494 15.6054C59.9494 15.6054 44.5495 27.4054 40.1495 44.3054C40.0495 44.6054 39.8495 44.7054 39.5495 44.7054Z" fill="#0A2341"/>
<path d="M77.45 94.0053C59.55 94.0053 43.85 82.0053 39.15 64.7053C39.05 64.4053 39.25 64.1053 39.55 64.0053C39.85 63.9053 40.15 64.1053 40.25 64.4053C44.85 81.2053 60.15 92.9053 77.55 92.9053C95.05 92.9053 110.35 81.1053 114.85 64.2053C114.95 63.9053 115.25 63.7053 115.55 63.8053C115.85 63.9053 116.05 64.2053 115.95 64.5053C111.15 81.9053 95.45 94.0053 77.45 94.0053Z" fill="#0A2341"/>
<path d="M122.85 36.2051C120.85 36.2051 120.75 39.3051 122.85 39.3051C124.85 39.3051 124.85 36.2051 122.85 36.2051Z" fill="#0A2341"/>
<path d="M124.15 47.0054C122.15 47.0054 122.05 50.2054 124.15 50.2054C126.05 50.2054 126.15 47.0054 124.15 47.0054Z" fill="#0A2341"/>
<path d="M129.95 38.6055C127.95 38.6055 127.95 41.7055 129.95 41.7055C131.85 41.7055 131.95 38.6055 129.95 38.6055Z" fill="#0A2341"/>
<path d="M132.45 29.9053C130.45 29.9053 130.35 33.0052 132.45 33.0052C134.45 33.0052 134.55 29.9053 132.45 29.9053Z" fill="#0A2341"/>
<path d="M143.25 38.2051C141.15 38.2051 141.15 41.4051 143.25 41.4051C145.25 41.4051 145.25 38.2051 143.25 38.2051Z" fill="#0A2341"/>
<path d="M141.95 53.5054C139.85 53.5054 139.85 56.7054 141.95 56.7054C143.95 56.7054 143.95 53.5054 141.95 53.5054Z" fill="#0A2341"/>
<path d="M126.65 63.1055C124.55 63.1055 124.55 66.4055 126.65 66.4055C128.75 66.4055 128.75 63.1055 126.65 63.1055Z" fill="#0A2341"/>
<path d="M27.9498 42.2051C25.9498 42.2051 25.8498 45.3051 27.9498 45.3051C29.9498 45.3051 29.9498 42.2051 27.9498 42.2051Z" fill="#0A2341"/>
<path d="M34.1502 50.9053C32.0502 50.9053 32.0502 54.1053 34.1502 54.1053C36.1502 54.1053 36.2502 50.9053 34.1502 50.9053Z" fill="#0A2341"/>
<path d="M21.75 54.2051C19.75 54.2051 19.75 57.3051 21.75 57.3051C23.75 57.2051 23.75 54.2051 21.75 54.2051Z" fill="#0A2341"/>
<path d="M14.0502 49.8057C11.9502 49.8057 11.8502 53.1057 14.0502 53.1057C16.0502 53.1057 16.1502 49.8057 14.0502 49.8057Z" fill="#0A2341"/>
<path d="M17.2498 69.0054C15.1498 69.0054 15.1498 72.2054 17.2498 72.2054C19.2498 72.2054 19.3498 69.0054 17.2498 69.0054Z" fill="#0A2341"/>
<path d="M30.2503 70.4053C28.3503 70.4053 28.3503 73.3053 30.1503 73.3053C32.0503 73.3053 32.0503 70.4053 30.2503 70.4053Z" fill="#0A2341"/>
<path d="M123.05 29.0054C122.25 29.0054 122.25 30.2054 123.05 30.2054C123.75 30.3054 123.85 29.0054 123.05 29.0054Z" fill="#0A2341"/>
<path d="M136.75 38.9053C135.95 38.9053 135.95 40.1053 136.75 40.1053C137.55 40.1053 137.55 38.9053 136.75 38.9053Z" fill="#0A2341"/>
<path d="M140.55 31.2051C139.65 31.2051 139.65 32.6051 140.55 32.6051C141.35 32.6051 141.35 31.2051 140.55 31.2051Z" fill="#0A2341"/>
<path d="M138.05 45.3057C137.15 45.3057 137.15 46.7057 138.05 46.7057C138.85 46.7057 138.85 45.3057 138.05 45.3057Z" fill="#0A2341"/>
<path d="M133.15 57.2051C132.15 57.2051 132.15 58.7051 133.15 58.7051C134.15 58.7051 134.15 57.2051 133.15 57.2051Z" fill="#0A2341"/>
<path d="M135.05 65.1051C134.95 64.4051 133.95 64.3051 133.85 65.1051C133.85 65.2051 133.85 65.3051 133.85 65.4051C133.75 66.2051 135.15 66.2051 135.05 65.4051C135.05 65.3051 135.05 65.2051 135.05 65.1051Z" fill="#0A2341"/>
<path d="M145.35 49.0054C144.55 49.0054 144.55 50.3054 145.35 50.3054C146.15 50.3054 146.25 49.0054 145.35 49.0054Z" fill="#0A2341"/>
<path d="M150.05 39.7051C149.25 39.7051 149.25 41.0051 150.05 41.0051C150.85 40.9051 150.85 39.7051 150.05 39.7051Z" fill="#0A2341"/>
<path d="M119.65 51.6055C118.85 51.6055 118.85 52.9055 119.65 52.9055C120.45 52.9055 120.45 51.6055 119.65 51.6055Z" fill="#0A2341"/>
<path d="M143.15 62.7051C142.25 62.7051 142.25 64.1051 143.15 64.1051C144.15 64.2051 144.15 62.7051 143.15 62.7051Z" fill="#0A2341"/>
<path d="M14.2502 60.6055C13.3502 60.6055 13.3502 62.0055 14.2502 62.0055C15.1502 62.0055 15.1502 60.6055 14.2502 60.6055Z" fill="#0A2341"/>
<path d="M30.8498 59.9053C29.9498 59.9053 29.9498 61.3053 30.8498 61.3053C31.7498 61.2053 31.7498 59.9053 30.8498 59.9053Z" fill="#0A2341"/>
<path d="M29.1496 51.8057C28.2496 51.8057 28.2496 53.2057 29.1496 53.2057C29.9496 53.2057 29.9496 51.8057 29.1496 51.8057Z" fill="#0A2341"/>
<path d="M22.15 47.7055C22.05 47.8055 21.95 47.9055 21.85 48.0055C21.25 48.7055 22.15 49.6055 22.85 49.0055C22.95 48.9055 23.05 48.8055 23.15 48.7055C23.85 48.1055 22.75 47.1055 22.15 47.7055Z" fill="#0A2341"/>
<path d="M7.24961 53.5054C6.54961 53.5054 6.54961 54.6054 7.24961 54.6054C7.84961 54.6054 7.94961 53.5054 7.24961 53.5054Z" fill="#0A2341"/>
<path d="M9.44961 66.4053C8.64961 66.4053 8.64961 67.6053 9.44961 67.6053C10.2496 67.6053 10.2496 66.4053 9.44961 66.4053Z" fill="#0A2341"/>
<path d="M23.35 72.9053C22.55 72.9053 22.55 74.2053 23.35 74.2053C24.15 74.1053 24.25 72.9053 23.35 72.9053Z" fill="#0A2341"/>
<path d="M11.05 75.1055C10.15 75.1055 10.15 76.5055 11.05 76.5055C11.95 76.5055 11.95 75.1055 11.05 75.1055Z" fill="#0A2341"/>
<path d="M2.75 64.4053C1.75 64.4053 1.75 66.0052 2.75 66.0052C3.75 65.9052 3.75 64.4053 2.75 64.4053Z" fill="#0A2341"/>
<path d="M34.7504 75.8057C33.9504 75.8057 33.9504 77.0056 34.7504 77.0056C35.4504 77.0056 35.5504 75.8057 34.7504 75.8057Z" fill="#0A2341"/>
<path d="M26.9504 77.0054C26.0504 77.0054 26.0504 78.4054 26.9504 78.4054C27.8504 78.4054 27.8504 77.0054 26.9504 77.0054Z" fill="#0A2341"/>
<path d="M14.6496 42.7051C13.7496 42.7051 13.7496 44.0051 14.6496 44.0051C15.5496 44.1051 15.5496 42.7051 14.6496 42.7051Z" fill="#0A2341"/>
<path d="M28.6498 32.7052L27.8498 34.4052C27.7498 34.4052 27.7498 34.4052 27.6498 34.3052C27.5498 34.3052 27.5498 34.2052 27.4498 34.2052C27.3498 34.2052 27.3498 34.1052 27.2498 34.1052C27.1498 34.1052 27.1498 34.0052 27.0498 34.0052L28.9498 29.8052C29.0498 29.8052 29.0498 29.8052 29.1498 29.9052C29.2498 29.9052 29.2498 30.0052 29.3498 30.0052C29.4498 30.0052 29.4498 30.1052 29.5498 30.1052C29.6498 30.1052 29.6498 30.2052 29.7498 30.2052L28.9498 31.9052L34.5498 34.4052C34.5498 34.5052 34.4498 34.7052 34.3498 34.9052C34.2498 35.1052 34.1498 35.2052 34.1498 35.3052L28.6498 32.7052Z" fill="#0A2341"/>
<path d="M30.0498 27.8052C30.1498 27.7052 30.1498 27.6052 30.2498 27.4052C30.2498 27.3052 30.3498 27.2052 30.3498 27.1052C30.4498 27.0052 30.4498 26.9052 30.5498 26.8052C30.6498 26.7052 30.6498 26.6052 30.7498 26.4052C30.9498 26.1052 31.1498 25.9052 31.3498 25.6052C31.5498 25.4052 31.8498 25.2052 32.0498 25.0052C32.3498 24.9052 32.6498 24.8052 32.9498 24.8052C33.2498 24.8052 33.6498 24.9052 33.9498 25.1052C34.1498 25.2052 34.3498 25.4052 34.4498 25.6052C34.5498 25.8052 34.6498 26.0052 34.7498 26.2052C34.8498 26.4052 34.8498 26.6052 34.8498 26.8052C34.8498 27.0052 34.8498 27.2052 34.8498 27.4052V27.5052L38.4498 27.3052C38.3498 27.5052 38.2498 27.6052 38.1498 27.8052C38.0498 27.9052 37.9498 28.1052 37.8498 28.2052L33.9498 28.4052V28.3052C34.0498 28.1052 34.0498 27.9052 34.0498 27.7052C34.0498 27.5052 34.0498 27.3052 34.0498 27.1052C34.0498 26.9052 33.9498 26.7052 33.8498 26.5052C33.7498 26.3052 33.5498 26.2052 33.3498 26.0052C32.9498 25.8052 32.5498 25.7052 32.2498 25.8052C31.9498 25.9052 31.6498 26.2052 31.3498 26.6052C31.2498 26.7052 31.2498 26.8052 31.2498 26.9052C31.2498 27.0052 31.1498 27.1052 31.1498 27.2052L36.4498 30.4052C36.4498 30.5052 36.3498 30.5052 36.3498 30.6052C36.3498 30.7052 36.2498 30.8052 36.2498 30.8052C36.2498 30.9052 36.1498 30.9052 36.1498 31.0052C36.1498 31.1052 36.0498 31.1052 35.9498 31.2052L30.0498 27.8052Z" fill="#0A2341"/>
<path d="M33.8496 22.0054L36.2496 19.0054C36.3496 19.1054 36.4496 19.1054 36.6496 19.2054C36.7496 19.2054 36.7496 19.3054 36.8496 19.3054C36.9496 19.4054 36.9496 19.4054 37.0496 19.5054L35.2496 21.7054L36.8496 22.9054L38.2496 21.1054C38.3496 21.1054 38.3496 21.2054 38.4496 21.2054C38.5496 21.2054 38.5496 21.3054 38.6496 21.3054C38.7496 21.3054 38.7496 21.4054 38.8496 21.4054C38.9496 21.5054 38.9496 21.5054 38.9496 21.6054L37.5496 23.4054L39.4496 24.9054L41.2496 22.6054C41.3496 22.7054 41.4496 22.7054 41.6496 22.8054C41.7496 22.8054 41.7496 22.9054 41.8496 22.9054C41.9496 23.0054 41.9496 23.0054 42.0496 23.1054L39.6496 26.2054L33.8496 22.0054Z" fill="#0A2341"/>
<path d="M37.8496 17.1055C37.8496 17.0055 37.9496 17.0055 37.9496 16.9055C38.0496 16.8055 38.0496 16.8055 38.1496 16.7055C38.2496 16.7055 38.2496 16.6055 38.3496 16.5055C38.4496 16.4055 38.4496 16.4055 38.5496 16.4055L44.3496 18.0055L40.6496 14.2055C40.6496 14.1055 40.7496 14.1055 40.8496 14.0055C40.9496 13.9055 40.9496 13.9055 41.0496 13.8055C41.1496 13.8055 41.1496 13.7055 41.2496 13.7055C41.3496 13.7055 41.3496 13.6055 41.4496 13.6055L46.3496 18.6055C46.3496 18.7055 46.2496 18.7055 46.2496 18.8055C46.1496 18.9055 46.1496 18.9055 46.0496 19.0055C45.9496 19.0055 45.9496 19.1055 45.8496 19.2055C45.7496 19.3055 45.7496 19.3055 45.6496 19.3055L39.8496 17.7055L43.4496 21.4055C43.4496 21.5055 43.3496 21.5055 43.3496 21.6055C43.2496 21.7055 43.2496 21.7055 43.1496 21.8055C43.0496 21.9055 43.0496 21.9055 42.9496 22.0055C42.8496 22.1055 42.8496 22.1055 42.7496 22.1055L37.8496 17.1055Z" fill="#0A2341"/>
<path d="M43.6494 11.8054C43.8494 11.7054 44.0494 11.5054 44.2494 11.3054C44.4494 11.1054 44.7494 10.9054 44.9494 10.7054C45.9494 10.0054 46.8494 9.70537 47.7494 9.80537C48.6494 9.90537 49.3494 10.5054 50.0494 11.4054C50.7494 12.4054 51.0494 13.3054 50.8494 14.1054C50.6494 14.9054 50.1494 15.7054 49.1494 16.4054C48.9494 16.6054 48.6494 16.7054 48.3494 16.9054C48.0494 17.1054 47.8494 17.2054 47.6494 17.3054L43.6494 11.8054ZM48.0494 16.2054C48.1494 16.2054 48.2494 16.1054 48.3494 16.0054C48.4494 15.9054 48.5494 15.9054 48.7494 15.8054C49.0494 15.6054 49.3494 15.3054 49.5494 15.1054C49.7494 14.8054 49.8494 14.6054 49.9494 14.3054C50.0494 14.0054 49.9494 13.7054 49.8494 13.3054C49.7494 12.9054 49.5494 12.5054 49.2494 12.1054C48.9494 11.7054 48.6494 11.4054 48.3494 11.2054C48.0494 11.0054 47.7494 10.9054 47.4494 10.8054C47.1494 10.8054 46.8494 10.8054 46.5494 10.9054C46.2494 11.0054 45.9494 11.2054 45.6494 11.4054C45.5494 11.5054 45.4494 11.6054 45.3494 11.6054C45.2494 11.7054 45.1494 11.8054 45.0494 11.9054L48.0494 16.2054Z" fill="#0A2341"/>
<path d="M54.45 6.9054C54.55 7.2054 54.75 7.3054 54.95 7.4054C55.15 7.5054 55.45 7.40539 55.85 7.30539L57.75 6.4054L58.05 4.9054H58.15L58.65 6.00537L59.85 5.50537C59.95 5.60537 59.95 5.70539 60.05 5.80539C60.05 5.90539 60.15 5.90537 60.15 6.00537C60.15 6.10537 60.15 6.10538 60.25 6.20538L59.05 6.70538L59.65 8.00537C59.85 8.40537 59.85 8.70537 59.85 9.00537C59.85 9.30537 59.75 9.6054 59.65 9.9054C59.45 10.2054 59.25 10.4054 58.95 10.7054C58.65 10.9054 58.35 11.1054 57.95 11.3054C57.65 11.4054 57.35 11.5054 56.95 11.6054C56.65 11.7054 56.35 11.7054 56.05 11.6054C55.75 11.5054 55.45 11.4054 55.25 11.2054C55.05 11.0054 54.85 10.8054 54.65 10.4054C54.55 10.2054 54.55 10.0054 54.45 9.80539C54.45 9.60539 54.45 9.40538 54.45 9.20538C54.45 9.00538 54.55 8.80538 54.65 8.60538C54.75 8.40538 54.85 8.30538 54.95 8.10538C54.65 8.10538 54.35 8.0054 54.05 7.9054C53.75 7.8054 53.55 7.50538 53.45 7.20538C53.35 6.90538 53.25 6.70537 53.35 6.50537C53.35 6.30537 53.45 6.00539 53.55 5.80539C53.65 5.60539 53.85 5.40538 54.05 5.20538C54.25 5.00538 54.45 4.90539 54.75 4.80539C54.95 4.70539 55.05 4.70538 55.25 4.60538C55.45 4.50538 55.65 4.50537 55.95 4.50537C56.05 4.60537 56.05 4.8054 56.05 4.9054C56.05 5.0054 56.05 5.10539 56.05 5.30539C55.85 5.30539 55.75 5.4054 55.55 5.4054C55.35 5.4054 55.25 5.50538 55.15 5.60538C54.95 5.70538 54.85 5.8054 54.65 5.9054C54.55 6.0054 54.45 6.10538 54.45 6.20538C54.35 6.30538 54.35 6.40538 54.35 6.60538C54.35 6.70538 54.35 6.8054 54.45 6.9054ZM57.65 10.6054C57.95 10.4054 58.25 10.3054 58.45 10.1054C58.65 9.90538 58.75 9.70537 58.85 9.50537C58.95 9.30537 58.95 9.1054 58.85 8.9054C58.85 8.7054 58.75 8.50539 58.65 8.30539L58.15 7.20538L56.35 8.00537C56.15 8.10537 55.95 8.2054 55.85 8.4054C55.75 8.6054 55.65 8.7054 55.55 8.9054C55.45 9.1054 55.45 9.30537 55.45 9.50537C55.45 9.70537 55.55 9.90538 55.55 10.1054C55.75 10.5054 55.95 10.8054 56.35 10.9054C56.75 10.8054 57.15 10.8054 57.65 10.6054Z" fill="#0A2341"/>
<path d="M64.85 7.60556C65.05 7.60556 65.35 7.60557 65.55 7.70557C65.75 7.70557 66.05 7.70556 66.45 7.60556C66.95 7.50556 67.35 7.30555 67.55 7.00555C67.75 6.70555 67.85 6.40556 67.75 6.10556C67.75 5.90556 67.65 5.80557 67.55 5.70557C67.45 5.60557 67.35 5.50558 67.25 5.40558C67.15 5.30558 66.95 5.30557 66.75 5.20557C66.55 5.20557 66.35 5.10556 66.15 5.10556L65.55 5.00555C65.35 5.00555 65.15 4.90558 64.95 4.90558C64.75 4.80558 64.65 4.80557 64.45 4.70557C64.35 4.60557 64.15 4.50557 64.05 4.30557C63.95 4.10557 63.85 3.90557 63.85 3.70557C63.75 3.10557 63.85 2.60557 64.15 2.20557C64.45 1.80557 64.95 1.50557 65.65 1.30557C65.95 1.20557 66.25 1.20557 66.55 1.20557C66.85 1.20557 67.05 1.20557 67.35 1.20557C67.35 1.50557 67.35 1.80555 67.35 2.00555C67.15 2.00555 66.95 2.00555 66.75 2.00555C66.55 2.00555 66.25 2.00556 65.95 2.10556C65.55 2.20556 65.25 2.30555 65.05 2.50555C64.85 2.70555 64.85 3.00557 64.85 3.30557C64.85 3.40557 64.95 3.50556 65.05 3.60556C65.15 3.70556 65.25 3.80557 65.35 3.80557C65.45 3.90557 65.55 3.90558 65.75 3.90558C65.85 3.90558 66.05 4.00555 66.15 4.00555L66.75 4.10556C67.05 4.10556 67.25 4.20557 67.45 4.30557C67.65 4.40557 67.85 4.50556 68.05 4.60556C68.25 4.70556 68.35 4.90556 68.45 5.10556C68.55 5.30556 68.65 5.50557 68.75 5.80557C68.85 6.50557 68.75 7.00555 68.45 7.50555C68.05 8.00555 67.55 8.30555 66.65 8.50555C66.45 8.50555 66.25 8.60556 66.15 8.60556C65.95 8.60556 65.85 8.60556 65.65 8.60556C65.55 8.60556 65.35 8.60556 65.25 8.60556C65.15 8.60556 64.95 8.60556 64.85 8.60556C64.85 8.50556 64.85 8.30557 64.85 8.20557C64.85 7.90557 64.85 7.80556 64.85 7.60556Z" fill="#0A2341"/>
<path d="M71.2496 1.30557L69.4496 1.50555C69.4496 1.40555 69.4496 1.40557 69.3496 1.30557C69.3496 1.20557 69.3496 1.20556 69.3496 1.10556C69.3496 1.00556 69.3496 1.00558 69.3496 0.905579C69.3496 0.805579 69.3496 0.805566 69.3496 0.705566L73.9496 0.205566C73.9496 0.305566 73.9496 0.305579 74.0496 0.405579C74.0496 0.505579 74.0496 0.50556 74.0496 0.60556C74.0496 0.70556 74.0496 0.705572 74.0496 0.805573C74.0496 0.905573 74.0496 1.00555 74.0496 1.00555L72.2496 1.20557L72.8496 7.30557C72.7496 7.30557 72.5496 7.40558 72.3496 7.40558C72.1496 7.40558 72.0496 7.40558 71.8496 7.40558L71.2496 1.30557Z" fill="#0A2341"/>
<path d="M77.6498 4.50537L75.5498 0.00537109C75.6498 0.00537109 75.7498 0.00537109 75.8498 0.00537109C75.9498 0.00537109 76.0498 0.00537109 76.1498 0.00537109C76.2498 0.00537109 76.3498 0.00537109 76.4498 0.00537109C76.5498 0.00537109 76.6498 0.00537109 76.7498 0.00537109L78.3498 3.50537L80.0498 0.105377C80.1498 0.105377 80.2498 0.105377 80.3498 0.105377C80.4498 0.105377 80.5498 0.105377 80.6498 0.105377C80.7498 0.105377 80.8498 0.105377 80.9498 0.105377C81.0498 0.105377 81.1498 0.105377 81.2498 0.105377L78.9498 4.50537V7.10538C78.8498 7.10538 78.7498 7.10538 78.6498 7.10538C78.5498 7.10538 78.4498 7.10538 78.3498 7.10538C78.2498 7.10538 78.1498 7.10538 78.0498 7.10538C77.9498 7.10538 77.8498 7.10538 77.8498 7.10538L77.6498 4.50537Z" fill="#0A2341"/>
<path d="M82.8498 0.305176C82.9498 0.305176 82.9498 0.305176 83.0498 0.305176C83.1498 0.305176 83.2498 0.305176 83.3498 0.305176C83.4498 0.305176 83.5498 0.305176 83.5498 0.305176C83.6498 0.305176 83.7498 0.305182 83.7498 0.405182L82.9498 6.50516L85.6498 6.80518C85.6498 6.90518 85.6498 6.90516 85.6498 7.00516C85.6498 7.10516 85.6498 7.10517 85.6498 7.20517C85.6498 7.40517 85.6498 7.50516 85.5498 7.60516L82.0498 7.20517L82.8498 0.305176Z" fill="#0A2341"/>
<path d="M88.6494 1.20557L92.3494 2.10556C92.3494 2.20556 92.3494 2.40555 92.2494 2.50555C92.2494 2.60555 92.2494 2.60557 92.1494 2.70557C92.1494 2.80557 92.1494 2.80558 92.0494 2.90558L89.2494 2.20557L88.7494 4.10556L90.9494 4.60556C90.9494 4.70556 90.9494 4.70557 90.9494 4.80557C90.9494 4.90557 90.9494 4.90555 90.9494 5.00555C90.9494 5.10555 90.9494 5.10557 90.8494 5.20557C90.8494 5.30557 90.7494 5.30558 90.7494 5.40558L88.5494 4.90558L87.9494 7.20557L90.7494 7.90558C90.7494 8.00558 90.7494 8.20557 90.6494 8.30557C90.6494 8.40557 90.6494 8.40555 90.5494 8.50555C90.5494 8.60555 90.5494 8.60557 90.4494 8.70557L86.6494 7.80557L88.6494 1.20557Z" fill="#0A2341"/>
<path d="M126.05 76.4053L126.85 74.8053C126.95 74.8053 126.95 74.8053 127.05 74.9053C127.15 74.9053 127.15 75.0052 127.25 75.0052C127.35 75.0052 127.35 75.1053 127.45 75.1053C127.55 75.1053 127.55 75.2053 127.65 75.2053L125.65 79.4053C125.55 79.4053 125.55 79.4053 125.45 79.3053C125.35 79.3053 125.35 79.2053 125.25 79.2053C125.15 79.2053 125.15 79.1053 125.05 79.1053C124.95 79.1053 124.95 79.0052 124.85 79.0052L125.65 77.4053L120.15 74.8053C120.15 74.7053 120.25 74.5053 120.35 74.3053C120.45 74.1053 120.55 74.0053 120.55 73.9053L126.05 76.4053Z" fill="#0A2341"/>
<path d="M124.55 81.2054C124.45 81.3054 124.45 81.4054 124.35 81.5054C124.25 81.6054 124.25 81.7054 124.15 81.8054C124.05 81.9054 124.05 82.0054 123.95 82.1054C123.85 82.2054 123.85 82.3054 123.75 82.5054C123.55 82.8054 123.35 83.0054 123.15 83.3054C122.95 83.5054 122.65 83.7054 122.45 83.9054C122.15 84.0054 121.85 84.1054 121.55 84.1054C121.25 84.1054 120.85 84.0054 120.55 83.7054C120.35 83.6054 120.15 83.4054 120.05 83.2054C119.95 83.0054 119.85 82.8054 119.75 82.6054C119.65 82.4054 119.65 82.2054 119.65 82.0054C119.65 81.8054 119.65 81.6054 119.65 81.4054V81.3054L116.05 81.5054C116.15 81.3054 116.25 81.2054 116.35 81.0054C116.45 80.9054 116.55 80.7054 116.65 80.6054L120.55 80.4054V80.5054C120.45 80.7054 120.45 80.9054 120.45 81.1054C120.45 81.3054 120.45 81.5054 120.45 81.7054C120.45 81.9054 120.55 82.1054 120.65 82.3054C120.75 82.5054 120.85 82.6054 121.15 82.8054C121.55 83.0054 121.95 83.1054 122.25 83.0054C122.55 82.9054 122.85 82.6054 123.15 82.2054C123.25 82.1054 123.25 82.0054 123.35 81.9054C123.35 81.8054 123.45 81.7054 123.45 81.6054L118.15 78.3054C118.15 78.2054 118.25 78.2054 118.25 78.1054C118.25 78.0054 118.35 78.0054 118.35 77.9054C118.35 77.8054 118.45 77.8054 118.45 77.7054C118.55 77.6054 118.55 77.6054 118.65 77.5054L124.55 81.2054Z" fill="#0A2341"/>
<path d="M120.75 87.0052L118.35 90.0052C118.25 89.9052 118.15 89.9052 117.95 89.8052C117.85 89.8052 117.85 89.7052 117.75 89.7052C117.65 89.6052 117.65 89.6052 117.55 89.5052L119.35 87.3052L117.75 86.0052L116.35 87.8052C116.25 87.8052 116.25 87.7052 116.15 87.7052C116.05 87.7052 116.05 87.6052 115.95 87.6052C115.85 87.6052 115.85 87.5052 115.75 87.5052C115.65 87.4052 115.65 87.4052 115.65 87.3052L117.05 85.5052L115.15 84.0052L113.35 86.3052C113.25 86.2052 113.15 86.2052 112.95 86.1052C112.85 86.1052 112.85 86.0052 112.75 86.0052C112.65 85.9052 112.65 85.9052 112.65 85.8052L115.15 82.8052L120.75 87.0052Z" fill="#0A2341"/>
<path d="M116.65 91.8054C116.65 91.9054 116.55 91.9054 116.55 92.0054C116.45 92.1054 116.45 92.1054 116.35 92.2054C116.25 92.2054 116.25 92.3054 116.15 92.3054C116.05 92.4054 116.05 92.4054 115.95 92.4054L110.15 90.7054L113.75 94.5054C113.75 94.6054 113.65 94.6054 113.55 94.7054C113.45 94.8054 113.45 94.8054 113.35 94.9054C113.25 94.9054 113.25 95.0054 113.15 95.0054C113.05 95.0054 113.05 95.1054 112.95 95.1054L108.15 90.0054C108.15 89.9054 108.25 89.9054 108.25 89.8054C108.35 89.7054 108.35 89.7054 108.45 89.6054C108.55 89.6054 108.55 89.5054 108.65 89.4054C108.75 89.3054 108.75 89.3054 108.85 89.3054L114.65 91.0054L111.05 87.2054C111.05 87.1054 111.15 87.1054 111.15 87.0054C111.25 86.9054 111.25 86.9054 111.35 86.8054C111.45 86.7054 111.45 86.7054 111.55 86.6054C111.65 86.5054 111.65 86.5054 111.75 86.5054L116.65 91.8054Z" fill="#0A2341"/>
<path d="M110.75 97.1053C110.55 97.2053 110.35 97.4053 110.15 97.6053C109.95 97.8053 109.65 98.0053 109.45 98.2053C108.45 98.9053 107.55 99.2052 106.65 99.0052C105.75 98.8052 105.05 98.3053 104.35 97.3053C103.65 96.3053 103.35 95.4053 103.55 94.6053C103.75 93.8053 104.25 93.0053 105.25 92.3053C105.45 92.1053 105.75 92.0053 106.05 91.8053C106.35 91.6053 106.55 91.5053 106.75 91.4053L110.75 97.1053ZM106.45 92.7053C106.35 92.7053 106.25 92.8053 106.15 92.9053C106.05 93.0053 105.95 93.0053 105.75 93.1053C105.45 93.3053 105.15 93.6053 104.95 93.8053C104.75 94.1053 104.65 94.3053 104.55 94.6053C104.45 94.9053 104.55 95.2053 104.65 95.6053C104.75 96.0053 104.95 96.4053 105.25 96.8053C105.55 97.2053 105.85 97.5053 106.15 97.7053C106.45 97.9053 106.75 98.0053 107.05 98.1053C107.35 98.1053 107.65 98.1052 107.95 98.0052C108.25 97.9052 108.55 97.7052 108.85 97.5052C108.95 97.4052 109.05 97.4053 109.15 97.3053C109.25 97.2053 109.35 97.1053 109.45 97.1053L106.45 92.7053Z" fill="#0A2341"/>
<path d="M99.9504 101.905C99.8504 101.605 99.6504 101.505 99.4504 101.405C99.2504 101.305 98.9504 101.405 98.5504 101.505L96.6504 102.305L96.3504 103.805H96.2504L95.7504 102.705L94.5504 103.205C94.4504 103.105 94.4504 103.005 94.3504 102.905C94.3504 102.805 94.2504 102.805 94.2504 102.705C94.2504 102.605 94.2504 102.605 94.1504 102.505L95.3504 102.005L94.7504 100.705C94.5504 100.305 94.5504 100.005 94.5504 99.7053C94.5504 99.4053 94.6504 99.1053 94.7504 98.8053C94.9504 98.5053 95.1504 98.3053 95.4504 98.0053C95.7504 97.8053 96.0504 97.6053 96.4504 97.4053C96.7504 97.3053 97.0504 97.2053 97.4504 97.1053C97.7504 97.0053 98.0504 97.0053 98.3504 97.1053C98.6504 97.2053 98.9504 97.3053 99.1504 97.5053C99.3504 97.7053 99.5504 98.0053 99.7504 98.3053C99.8504 98.5053 99.8504 98.7053 99.9504 98.9053C99.9504 99.1053 99.9504 99.3053 99.9504 99.5053C99.9504 99.7053 99.8504 99.9053 99.7504 100.105C99.6504 100.305 99.5504 100.405 99.4504 100.605C99.7504 100.605 100.05 100.705 100.35 100.805C100.65 100.905 100.85 101.205 100.95 101.505C101.05 101.805 101.15 102.005 101.05 102.205C101.05 102.405 100.95 102.705 100.85 102.905C100.75 103.105 100.55 103.305 100.35 103.405C100.15 103.605 99.9504 103.705 99.6504 103.805C99.4504 103.905 99.3504 103.905 99.1504 104.005C98.9504 104.105 98.7504 104.105 98.4504 104.105C98.3504 104.005 98.3504 103.805 98.3504 103.705C98.3504 103.605 98.3504 103.505 98.3504 103.305C98.5504 103.305 98.6504 103.305 98.8504 103.205C99.0504 103.205 99.1504 103.105 99.2504 103.105C99.4504 103.005 99.5504 102.905 99.7504 102.805C99.8504 102.705 99.9504 102.605 99.9504 102.505C100.05 102.405 100.05 102.305 100.05 102.105C100.05 102.105 100.05 102.005 99.9504 101.905ZM96.8504 98.2053C96.5504 98.3053 96.2504 98.5053 96.0504 98.7053C95.8504 98.9053 95.7504 99.1053 95.6504 99.3053C95.5504 99.5053 95.5504 99.7053 95.6504 99.9053C95.6504 100.105 95.7504 100.305 95.8504 100.505L96.3504 101.605L98.1504 100.805C98.3504 100.705 98.5504 100.605 98.6504 100.405C98.7504 100.305 98.8504 100.105 98.9504 99.9053C99.0504 99.7053 99.0504 99.5053 99.0504 99.3053C99.0504 99.1053 98.9504 98.9053 98.9504 98.7053C98.7504 98.3053 98.5504 98.0053 98.1504 97.9053C97.7504 97.9053 97.2504 98.0053 96.8504 98.2053Z" fill="#0A2341"/>
<path d="M89.5498 101.105C89.3498 101.105 89.0498 101.005 88.8498 101.005C88.6498 101.005 88.3498 101.005 87.9498 101.105C87.4498 101.205 87.0498 101.405 86.8498 101.705C86.6498 102.005 86.5498 102.305 86.6498 102.605C86.6498 102.805 86.7498 102.905 86.8498 103.005C86.9498 103.105 87.0498 103.205 87.1498 103.305C87.2498 103.405 87.4498 103.405 87.6498 103.505C87.8498 103.505 88.0498 103.605 88.2498 103.605L88.8498 103.705C89.0498 103.705 89.2498 103.805 89.4498 103.805C89.6498 103.805 89.7498 103.905 89.9498 104.105C90.0498 104.205 90.2498 104.305 90.3498 104.505C90.4498 104.705 90.5498 104.905 90.5498 105.105C90.6498 105.705 90.5498 106.205 90.2498 106.605C89.9498 107.005 89.4498 107.305 88.7498 107.405C88.4498 107.505 88.1498 107.505 87.8498 107.505C87.5498 107.505 87.3498 107.505 87.0498 107.505C87.0498 107.205 87.0498 106.905 87.0498 106.705C87.2498 106.705 87.4498 106.705 87.6498 106.705C87.8498 106.705 88.1498 106.705 88.4498 106.605C88.8498 106.505 89.1498 106.405 89.3498 106.205C89.5498 106.005 89.5498 105.705 89.5498 105.405C89.5498 105.305 89.4498 105.205 89.3498 105.105C89.2498 105.005 89.1498 104.905 89.0498 104.905C88.9498 104.805 88.8498 104.805 88.6498 104.805C88.5498 104.805 88.3498 104.705 88.2498 104.705L87.6498 104.605C87.3498 104.605 87.1498 104.505 86.9498 104.405C86.7498 104.305 86.5498 104.205 86.3498 104.105C86.1498 104.005 86.0498 103.805 85.9498 103.605C85.8498 103.405 85.7498 103.205 85.6498 102.905C85.5498 102.205 85.6498 101.705 85.9498 101.205C86.3498 100.705 86.9498 100.405 87.7498 100.205C87.9498 100.205 88.1498 100.105 88.2498 100.105C88.4498 100.105 88.5498 100.105 88.7498 100.105C88.8498 100.105 89.0498 100.105 89.1498 100.105C89.2498 100.105 89.4498 100.105 89.5498 100.105C89.5498 100.205 89.5498 100.405 89.5498 100.505C89.5498 100.805 89.5498 100.905 89.5498 101.105Z" fill="#0A2341"/>
<path d="M83.1506 107.305L84.9506 107.105C84.9506 107.205 84.9506 107.205 84.9506 107.305C84.9506 107.405 84.9506 107.405 84.9506 107.505C84.9506 107.605 84.9506 107.605 84.9506 107.705C84.9506 107.805 84.9506 107.805 84.9506 107.905L80.3506 108.305C80.3506 108.205 80.3506 108.205 80.3506 108.105C80.3506 108.005 80.3506 108.005 80.3506 107.905C80.3506 107.805 80.3506 107.805 80.3506 107.705C80.3506 107.605 80.3506 107.505 80.3506 107.505L82.1506 107.305L81.5506 101.205C81.6506 101.205 81.8506 101.105 82.0506 101.105C82.2506 101.105 82.3506 101.105 82.5506 101.105L83.1506 107.305Z" fill="#0A2341"/>
<path d="M76.85 104.105L78.95 108.605C78.85 108.605 78.75 108.605 78.65 108.605C78.55 108.605 78.45 108.605 78.35 108.605C78.25 108.605 78.15 108.605 78.05 108.605C77.95 108.605 77.85 108.605 77.75 108.605L76.15 105.105L74.45 108.505C74.35 108.505 74.25 108.505 74.15 108.505C74.05 108.505 73.95 108.505 73.85 108.505C73.75 108.505 73.65 108.505 73.55 108.505C73.45 108.505 73.35 108.505 73.25 108.505L75.55 104.105L75.65 101.505C75.75 101.505 75.85 101.505 75.95 101.505C76.05 101.505 76.15 101.505 76.25 101.505C76.35 101.505 76.45 101.505 76.55 101.505C76.65 101.505 76.75 101.505 76.75 101.505L76.85 104.105Z" fill="#0A2341"/>
<path d="M71.4504 108.205C71.3504 108.205 71.3504 108.205 71.2504 108.205C71.1504 108.205 71.0504 108.205 70.9504 108.205C70.8504 108.205 70.7504 108.205 70.7504 108.205C70.6504 108.205 70.5504 108.205 70.5504 108.105L71.3504 102.005L68.6504 101.605C68.6504 101.505 68.6504 101.505 68.6504 101.405C68.6504 101.305 68.6504 101.305 68.6504 101.205C68.6504 101.005 68.7504 100.905 68.7504 100.805L72.4504 101.305L71.4504 108.205Z" fill="#0A2341"/>
<path d="M65.6502 107.205L61.9502 106.305C61.9502 106.205 61.9502 106.005 62.0502 105.905C62.0502 105.805 62.0502 105.805 62.1502 105.705C62.1502 105.605 62.1502 105.605 62.2502 105.505L65.0502 106.205L65.5502 104.305L63.3502 103.705C63.3502 103.605 63.3502 103.605 63.3502 103.505C63.3502 103.405 63.3502 103.405 63.3502 103.305C63.3502 103.205 63.3502 103.205 63.4502 103.105C63.4502 103.005 63.5502 103.005 63.5502 102.905L65.7502 103.505L66.3502 101.205L63.5502 100.505C63.5502 100.405 63.5502 100.205 63.6502 100.105C63.6502 100.005 63.6502 100.005 63.7502 99.9051C63.7502 99.8051 63.7502 99.8051 63.8502 99.7051L67.6502 100.705L65.6502 107.205Z" fill="#0A2341"/>
</svg>
