<svg width="7" height="143" viewBox="0 0 7 143" fill="none" xmlns="http://www.w3.org/2000/svg">
<path d="M-0.669922 0L5.20876 5.87868C6.38033 7.05025 6.38033 8.94975 5.20876 10.1213L1.4514 13.8787C0.279823 15.0503 0.279826 16.9497 1.4514 18.1213L5.20876 21.8787C6.38033 23.0503 6.38033 24.9497 5.20876 26.1213L1.4514 29.8787C0.279823 31.0503 0.279826 32.9497 1.4514 34.1213L5.20876 37.8787C6.38033 39.0503 6.38033 40.9497 5.20876 42.1213L1.4514 45.8787C0.279823 47.0503 0.279826 48.9497 1.4514 50.1213L5.20876 53.8787C6.38033 55.0503 6.38033 56.9497 5.20876 58.1213L1.4514 61.8787C0.279823 63.0503 0.279826 64.9497 1.4514 66.1213L5.20876 69.8787C6.38033 71.0503 6.38033 72.9497 5.20876 74.1213L1.4514 77.8787C0.279823 79.0503 0.279826 80.9497 1.4514 82.1213L5.20876 85.8787C6.38033 87.0503 6.38033 88.9497 5.20876 90.1213L1.4514 93.8787C0.279823 95.0503 0.279826 96.9497 1.4514 98.1213L5.20876 101.879C6.38033 103.05 6.38033 104.95 5.20876 106.121L1.4514 109.879C0.279823 111.05 0.279826 112.95 1.4514 114.121L5.20876 117.879C6.38033 119.05 6.38033 120.95 5.20876 122.121L1.4514 125.879C0.279823 127.05 0.279826 128.95 1.4514 130.121L5.20876 133.879C6.38033 135.05 6.38033 136.95 5.20876 138.121L1.4514 141.879C0.279823 143.05 0.279826 144.95 1.4514 146.121L5.20876 149.879C6.38033 151.05 6.38033 152.95 5.20876 154.121L1.4514 157.879C0.279823 159.05 0.279826 160.95 1.4514 162.121L5.20876 165.879C6.38033 167.05 6.38033 168.95 5.20876 170.121L1.4514 173.879C0.279823 175.05 0.279826 176.95 1.4514 178.121L5.20876 181.879C6.38033 183.05 6.38033 184.95 5.20876 186.121L1.4514 189.879C0.279823 191.05 0.279826 192.95 1.4514 194.121L5.20876 197.879C6.38033 199.05 6.38033 200.95 5.20876 202.121L-0.669922 208" stroke="#00A0AF"/>
</svg>
