<svg width="54" height="54" viewBox="0 0 54 54" fill="none" xmlns="http://www.w3.org/2000/svg">
<path d="M51.2441 7.44828H41.8966V2.7931C41.8966 2.05233 41.6023 1.34189 41.0785 0.818081C40.5547 0.294273 39.8442 0 39.1035 0H37.2414C36.5006 0 35.7902 0.294273 35.2664 0.818081C34.7425 1.34189 34.4483 2.05233 34.4483 2.7931V7.44828H2.75586C2.02526 7.44926 1.32487 7.73993 0.808262 8.25654C0.291651 8.77315 0.000985298 9.47354 0 10.2041V51.2441C0.000985298 51.9747 0.291651 52.6751 0.808262 53.1917C1.32487 53.7084 2.02526 53.999 2.75586 54H51.2069C51.9477 54 52.6581 53.7057 53.1819 53.1819C53.7057 52.6581 54 51.9477 54 51.2069V10.2041C53.999 9.47354 53.7084 8.77315 53.1917 8.25654C52.6751 7.73993 51.9747 7.44926 51.2441 7.44828ZM52.1379 42.8276H18.306C18.3107 42.8136 18.3125 42.7987 18.3172 42.7857C18.3804 42.5871 18.4324 42.385 18.4727 42.1805C18.4941 42.0874 18.5267 41.9943 18.5425 41.9012C18.5947 41.592 18.6208 41.2791 18.6207 40.9655C18.6204 40.6536 18.5946 40.3422 18.5434 40.0345C18.5267 39.9349 18.4931 39.8408 18.4717 39.7431C18.4315 39.5414 18.3799 39.3421 18.3172 39.1463C18.3172 39.1323 18.3107 39.1174 18.306 39.1035H20.4828V40.0345C20.4828 40.2814 20.5808 40.5182 20.7555 40.6928C20.9301 40.8674 21.1669 40.9655 21.4138 40.9655C21.6607 40.9655 21.8975 40.8674 22.0721 40.6928C22.2467 40.5182 22.3448 40.2814 22.3448 40.0345V39.1035H24.2069V40.0345C24.2069 40.2814 24.305 40.5182 24.4796 40.6928C24.6542 40.8674 24.891 40.9655 25.1379 40.9655C25.3849 40.9655 25.6217 40.8674 25.7963 40.6928C25.9709 40.5182 26.069 40.2814 26.069 40.0345V39.1035H27.931V40.0345C27.931 40.2814 28.0291 40.5182 28.2037 40.6928C28.3783 40.8674 28.6151 40.9655 28.8621 40.9655C29.109 40.9655 29.3458 40.8674 29.5204 40.6928C29.695 40.5182 29.7931 40.2814 29.7931 40.0345V39.1035H31.6552V40.0345C31.6552 40.2814 31.7533 40.5182 31.9279 40.6928C32.1025 40.8674 32.3393 40.9655 32.5862 40.9655C32.8331 40.9655 33.0699 40.8674 33.2445 40.6928C33.4192 40.5182 33.5172 40.2814 33.5172 40.0345V39.1035H35.3793V40.0345C35.3793 40.2814 35.4774 40.5182 35.652 40.6928C35.8266 40.8674 36.0634 40.9655 36.3103 40.9655C36.5573 40.9655 36.7941 40.8674 36.9687 40.6928C37.1433 40.5182 37.2414 40.2814 37.2414 40.0345V39.1035H39.1035V40.0345C39.1035 40.2814 39.2015 40.5182 39.3761 40.6928C39.5507 40.8674 39.7876 40.9655 40.0345 40.9655C40.2814 40.9655 40.5182 40.8674 40.6928 40.6928C40.8674 40.5182 40.9655 40.2814 40.9655 40.0345V39.1035H42.8276V40.0345C42.8276 40.2814 42.9257 40.5182 43.1003 40.6928C43.2749 40.8674 43.5117 40.9655 43.7586 40.9655C44.0055 40.9655 44.2424 40.8674 44.417 40.6928C44.5916 40.5182 44.6897 40.2814 44.6897 40.0345V39.1035H46.5517V40.0345C46.5517 40.2814 46.6498 40.5182 46.8244 40.6928C46.999 40.8674 47.2358 40.9655 47.4828 40.9655C47.7297 40.9655 47.9665 40.8674 48.1411 40.6928C48.3157 40.5182 48.4138 40.2814 48.4138 40.0345V39.1035H52.1379V42.8276ZM17.1785 37.2414C17.0461 37.0941 16.9059 36.9539 16.7586 36.8215V18.6207H34.4483V27C34.4483 27.0074 34.4483 27.014 34.4483 27.0205C34.4483 27.027 34.4483 27.0456 34.4529 27.0587C34.4595 27.1794 34.4896 27.2976 34.5414 27.4069V27.4162L37.3345 33.0024C37.4117 33.1573 37.5306 33.2876 37.6778 33.3787C37.825 33.4698 37.9947 33.5181 38.1678 33.5181C38.3409 33.5181 38.5105 33.4698 38.6577 33.3787C38.8049 33.2876 38.9238 33.1573 39.001 33.0024L41.7941 27.4162V27.4069C41.8459 27.2976 41.876 27.1794 41.8826 27.0587C41.8826 27.0456 41.8872 27.0335 41.8872 27.0205C41.8872 27.0074 41.8872 27.0074 41.8872 27V18.6207H52.1379V37.2414H17.1785ZM11.8604 44.4941C11.4784 44.3723 11.1199 44.1866 10.8 43.9448C10.5197 43.7308 10.2692 43.4803 10.0552 43.2C9.57346 42.556 9.31314 41.7734 9.31314 40.9692C9.31314 40.165 9.57346 39.3825 10.0552 38.7385C10.2687 38.4555 10.5192 38.2025 10.8 37.9862C11.4475 37.513 12.2288 37.258 13.0308 37.258C13.8328 37.258 14.614 37.513 15.2615 37.9862C15.5444 38.202 15.7971 38.4547 16.0129 38.7376C16.4999 39.3779 16.7621 40.161 16.7586 40.9655C16.7588 41.1679 16.743 41.3699 16.7111 41.5698C16.6172 42.1625 16.3776 42.7227 16.0138 43.2C15.7982 43.4831 15.5455 43.7358 15.2624 43.9513C14.7785 44.3039 14.2179 44.5368 13.6266 44.6311C13.0353 44.7255 12.4301 44.6785 11.8604 44.4941ZM7.76297 42.8276H1.86207V39.1035H7.76297C7.76297 39.1174 7.75645 39.1323 7.75179 39.1453C7.68863 39.343 7.63672 39.5442 7.59631 39.7477C7.5749 39.8408 7.54231 39.9339 7.52555 40.0345C7.42252 40.6509 7.42252 41.2801 7.52555 41.8966C7.54231 41.9962 7.57583 42.0902 7.59817 42.1889C7.63807 42.3903 7.68936 42.5892 7.75179 42.7848C7.75645 42.7987 7.75831 42.8136 7.76297 42.8276ZM1.86207 37.2414V18.6207H9.31034V36.8215C9.16303 36.9539 9.02287 37.0941 8.89045 37.2414H1.86207ZM14.8966 20.4828H13.9655C13.7186 20.4828 13.4818 20.5808 13.3072 20.7555C13.1326 20.9301 13.0345 21.1669 13.0345 21.4138C13.0345 21.6607 13.1326 21.8975 13.3072 22.0721C13.4818 22.2467 13.7186 22.3448 13.9655 22.3448H14.8966V24.2069H13.9655C13.7186 24.2069 13.4818 24.305 13.3072 24.4796C13.1326 24.6542 13.0345 24.891 13.0345 25.1379C13.0345 25.3849 13.1326 25.6217 13.3072 25.7963C13.4818 25.9709 13.7186 26.069 13.9655 26.069H14.8966V27.931H13.9655C13.7186 27.931 13.4818 28.0291 13.3072 28.2037C13.1326 28.3783 13.0345 28.6151 13.0345 28.8621C13.0345 29.109 13.1326 29.3458 13.3072 29.5204C13.4818 29.695 13.7186 29.7931 13.9655 29.7931H14.8966V31.6552H13.9655C13.7186 31.6552 13.4818 31.7533 13.3072 31.9279C13.1326 32.1025 13.0345 32.3393 13.0345 32.5862C13.0345 32.8331 13.1326 33.0699 13.3072 33.2445C13.4818 33.4192 13.7186 33.5172 13.9655 33.5172H14.8966V35.694C13.6906 35.2744 12.3783 35.2744 11.1724 35.694V18.6207H14.8966V20.4828ZM39.6528 27.5437L38.1724 30.5044L36.6921 27.5437L38.1724 27.0503L39.6528 27.5437ZM40.0345 8.37931V25.7077L38.4666 25.1863C38.2758 25.1218 38.069 25.1218 37.8782 25.1863L36.3103 25.7077V7.44828H40.0345V8.37931ZM51.2441 9.31034C51.481 9.31084 51.7081 9.40516 51.8756 9.57267C52.0431 9.74019 52.1374 9.96724 52.1379 10.2041V16.7586H41.8966V9.31034H51.2441ZM36.3103 2.7931C36.3103 2.54618 36.4084 2.30937 36.583 2.13476C36.7576 1.96016 36.9945 1.86207 37.2414 1.86207H39.1035C39.3504 1.86207 39.5872 1.96016 39.7618 2.13476C39.9364 2.30937 40.0345 2.54618 40.0345 2.7931V5.58621H36.3103V2.7931ZM1.86207 10.2041C1.86256 9.96724 1.95689 9.74019 2.1244 9.57267C2.29191 9.40516 2.51896 9.31084 2.75586 9.31034H34.4483V16.7586H1.86207V10.2041ZM1.86207 51.2441V44.6897H8.89045C9.02287 44.837 9.16303 44.9771 9.31034 45.1096V52.1379H2.75586C2.51896 52.1374 2.29191 52.0431 2.1244 51.8756C1.95689 51.7081 1.86256 51.481 1.86207 51.2441ZM11.1724 52.1379V46.237C11.1854 46.2417 11.2003 46.2436 11.2134 46.2473C11.4714 46.3343 11.7357 46.4019 12.0038 46.4493C12.0336 46.4549 12.0616 46.4661 12.0904 46.4707C12.7152 46.5787 13.3538 46.5787 13.9786 46.4707C14.0083 46.4707 14.0363 46.4549 14.0661 46.4493C14.3335 46.4017 14.5971 46.3345 14.8547 46.2482C14.8677 46.2436 14.8826 46.2417 14.8966 46.237V52.1379H11.1724ZM51.2069 52.1379H16.7586V45.1096C16.9059 44.9771 17.0461 44.837 17.1785 44.6897H52.1379V51.2069C52.1379 51.4538 52.0398 51.6906 51.8652 51.8652C51.6906 52.0398 51.4538 52.1379 51.2069 52.1379Z" fill="#00A0AF"/>
<path d="M7.44875 12.1035H4.65564C4.40872 12.1035 4.17191 12.2016 3.9973 12.3762C3.8227 12.5508 3.72461 12.7876 3.72461 13.0346C3.72461 13.2815 3.8227 13.5183 3.9973 13.6929C4.17191 13.8675 4.40872 13.9656 4.65564 13.9656H7.44875C7.69567 13.9656 7.93249 13.8675 8.10709 13.6929C8.28169 13.5183 8.37978 13.2815 8.37978 13.0346C8.37978 12.7876 8.28169 12.5508 8.10709 12.3762C7.93249 12.2016 7.69567 12.1035 7.44875 12.1035Z" fill="#00A0AF"/>
<path d="M11.1722 13.9656H13.9653C14.2123 13.9656 14.4491 13.8675 14.6237 13.6929C14.7983 13.5183 14.8964 13.2815 14.8964 13.0346C14.8964 12.7876 14.7983 12.5508 14.6237 12.3762C14.4491 12.2016 14.2123 12.1035 13.9653 12.1035H11.1722C10.9253 12.1035 10.6885 12.2016 10.5139 12.3762C10.3393 12.5508 10.2412 12.7876 10.2412 13.0346C10.2412 13.2815 10.3393 13.5183 10.5139 13.6929C10.6885 13.8675 10.9253 13.9656 11.1722 13.9656Z" fill="#00A0AF"/>
<path d="M17.6898 13.9656H20.4829C20.7299 13.9656 20.9667 13.8675 21.1413 13.6929C21.3159 13.5183 21.414 13.2815 21.414 13.0346C21.414 12.7876 21.3159 12.5508 21.1413 12.3762C20.9667 12.2016 20.7299 12.1035 20.4829 12.1035H17.6898C17.4429 12.1035 17.2061 12.2016 17.0315 12.3762C16.8569 12.5508 16.7588 12.7876 16.7588 13.0346C16.7588 13.2815 16.8569 13.5183 17.0315 13.6929C17.2061 13.8675 17.4429 13.9656 17.6898 13.9656Z" fill="#00A0AF"/>
</svg>
