<svg width="50" height="50" viewBox="0 0 50 50" fill="none" xmlns="http://www.w3.org/2000/svg">
<path d="M9.12066 18.2031C8.77581 18.0377 8.44439 17.8424 8.13494 17.6233C7.85235 17.4237 7.46295 17.4908 7.26336 17.7722C7.06378 18.0542 7.13091 18.4442 7.41229 18.6438C7.77911 18.9032 8.17217 19.1345 8.57989 19.3298C8.66717 19.3719 8.75933 19.3915 8.84966 19.3915C9.08282 19.3915 9.30621 19.2609 9.41363 19.0369C9.56316 18.7256 9.43194 18.352 9.12066 18.2031Z" fill="#ABCDD0"/>
<path d="M18.6866 10.4932C18.7732 10.8618 18.8294 11.2421 18.8538 11.6242C18.8587 11.7011 18.877 11.7737 18.9069 11.8396C18.8813 11.908 18.8672 11.9818 18.8672 12.0594C18.8672 12.4414 18.8355 12.8253 18.7726 13.1995C18.7159 13.5395 18.9454 13.8617 19.2859 13.9191C19.3207 13.9252 19.3555 13.9276 19.3897 13.9276C19.6894 13.9276 19.9543 13.7116 20.0055 13.4058C20.0794 12.9639 20.1172 12.5104 20.1172 12.0594C20.1172 11.9684 20.0977 11.8817 20.0629 11.8042C20.0928 11.7237 20.1069 11.6358 20.1014 11.5448C20.0727 11.0932 20.0061 10.6433 19.9036 10.2075C19.8243 9.87124 19.4831 9.66433 19.1523 9.74185C18.816 9.82119 18.6078 10.1575 18.6866 10.4932Z" fill="#ABCDD0"/>
<path d="M14.2683 5.61709C14.6278 5.73977 14.9794 5.8948 15.3139 6.07791C15.4091 6.12979 15.5116 6.1542 15.6129 6.1542C15.8339 6.1542 16.0487 6.0364 16.1622 5.82888C16.3276 5.52615 16.216 5.1459 15.9132 4.98049C15.5165 4.76443 15.0996 4.5801 14.6736 4.43423C14.3464 4.32376 13.9918 4.49649 13.8795 4.82302C13.7678 5.14956 13.9418 5.50479 14.2683 5.61709Z" fill="#ABCDD0"/>
<path d="M17.8003 8.39659C17.9199 8.58275 18.1213 8.68468 18.3276 8.68468C18.443 8.68468 18.5596 8.65294 18.6639 8.58641C18.9545 8.40025 19.0393 8.0139 18.8537 7.72276C18.6114 7.34434 18.3343 6.98241 18.0316 6.64793C17.7984 6.3922 17.4035 6.37389 17.1484 6.6046C16.8927 6.83653 16.8738 7.23204 17.1051 7.48778C17.362 7.77037 17.5958 8.07616 17.8003 8.39659Z" fill="#ABCDD0"/>
<path d="M15.6882 17.8211C15.3659 18.0243 15.0247 18.2013 14.6738 18.3478C14.3552 18.4808 14.2044 18.8464 14.3375 19.1651C14.4376 19.4049 14.6695 19.5496 14.9142 19.5496C14.9948 19.5496 15.076 19.5343 15.1547 19.5014C15.5698 19.328 15.9738 19.1187 16.3547 18.8782C16.647 18.6939 16.7343 18.3081 16.55 18.0164C16.3657 17.724 15.9799 17.6373 15.6882 17.8211Z" fill="#ABCDD0"/>
<path d="M12.4562 18.8562C12.0754 18.8776 11.6896 18.8684 11.31 18.8269C10.9621 18.7903 10.6581 19.0369 10.6209 19.3805C10.5837 19.7235 10.8315 20.0324 11.1745 20.0696C11.4681 20.1013 11.7659 20.1178 12.0619 20.1178C12.2182 20.1172 12.372 20.1123 12.5258 20.1038C12.87 20.0848 13.1343 19.79 13.1148 19.4452C13.0959 19.101 12.8108 18.8348 12.4562 18.8562Z" fill="#ABCDD0"/>
<path d="M18.8716 15.1044C18.5701 14.9371 18.1892 15.047 18.022 15.3485C17.8376 15.6817 17.624 16.0016 17.386 16.3C17.1711 16.5698 17.2157 16.9629 17.4855 17.1783C17.6002 17.2699 17.7382 17.3144 17.8743 17.3144C18.058 17.3144 18.2405 17.2339 18.3638 17.0788C18.6445 16.7261 18.8978 16.3476 19.1157 15.954C19.283 15.6518 19.1737 15.2716 18.8716 15.1044Z" fill="#ABCDD0"/>
<path d="M5.09701 14.7461C4.78695 14.8975 4.65817 15.2716 4.80954 15.5817C5.00729 15.9876 5.24044 16.3788 5.50167 16.7438C5.62374 16.9141 5.81601 17.005 6.01071 17.005C6.13644 17.005 6.264 16.9672 6.37387 16.8884C6.65463 16.687 6.71933 16.297 6.51852 16.0162C6.29757 15.7074 6.10043 15.3772 5.93258 15.0336C5.78244 14.7235 5.41012 14.5935 5.09701 14.7461Z" fill="#ABCDD0"/>
<path d="M4.93981 9.82302C5.01672 9.85475 5.09728 9.8694 5.17602 9.8694C5.42199 9.8694 5.65575 9.72292 5.75463 9.48061C5.89928 9.12661 6.07446 8.78481 6.27526 8.46498C6.45837 8.17263 6.36987 7.78688 6.07751 7.60317C5.78515 7.42006 5.40002 7.50856 5.21569 7.80092C4.97704 8.18178 4.76952 8.58766 4.59741 9.0082C4.46679 9.32741 4.61999 9.6924 4.93981 9.82302Z" fill="#ABCDD0"/>
<path d="M4.67383 13.5449C4.69763 13.5449 4.72144 13.5437 4.74524 13.5406C5.08826 13.5016 5.33484 13.1915 5.29517 12.8491C5.26587 12.5909 5.25061 12.3248 5.25 12.0593C5.25 11.9403 5.25305 11.8225 5.25916 11.7053C5.27686 11.3604 5.01196 11.0663 4.66772 11.0479C4.30273 11.0278 4.02808 11.2951 4.01038 11.6394C4.00305 11.7785 4 11.9183 4 12.0605C4.00061 12.3736 4.01892 12.6867 4.05371 12.9907C4.08972 13.3099 4.36011 13.5449 4.67383 13.5449Z" fill="#ABCDD0"/>
<path d="M7.39508 6.89515C7.5324 6.89515 7.67095 6.84999 7.78631 6.7566C8.08416 6.51734 8.40277 6.30128 8.7348 6.11512C9.0357 5.94605 9.14251 5.56459 8.97344 5.26368C8.80438 4.96278 8.42352 4.85658 8.122 5.02503C7.73016 5.24537 7.35357 5.5005 7.00262 5.7837C6.73345 5.99977 6.69134 6.39344 6.90801 6.662C7.03131 6.81581 7.21197 6.89515 7.39508 6.89515Z" fill="#ABCDD0"/>
<path d="M10.7711 5.36133C10.8065 5.36133 10.8431 5.35828 10.8797 5.35217C11.2521 5.28687 11.6354 5.25269 12.0181 5.25024C12.3629 5.24841 12.6412 4.96704 12.6394 4.62158C12.6376 4.27795 12.358 4.00024 12.0144 4.00024C12.0132 4.00024 12.0119 4.00024 12.0107 4.00024C11.5585 4.00269 11.105 4.04358 10.6637 4.12048C10.3237 4.1803 10.0967 4.50439 10.1559 4.84436C10.2096 5.14771 10.4733 5.36133 10.7711 5.36133Z" fill="#ABCDD0"/>
<path d="M0 12.0593C0 13.7762 1.01257 15.3082 2.53601 16.004C1.95068 17.5732 2.31812 19.3719 3.5321 20.5859C4.74548 21.8005 6.54602 22.1686 8.11401 21.582C8.81042 23.1055 10.3424 24.118 12.0593 24.118C13.7762 24.118 15.3082 23.1055 16.004 21.5826C17.5726 22.1661 19.3719 21.7999 20.5859 20.5859C21.7999 19.3726 22.1674 17.5732 21.582 16.004C23.1055 15.3082 24.118 13.7762 24.118 12.0593C24.118 10.3424 23.1055 8.81042 21.582 8.11401C22.1674 6.5448 21.7999 4.74548 20.5859 3.5321C19.3726 2.31934 17.5739 1.95068 16.004 2.53601C15.3082 1.01257 13.7762 0 12.0593 0C10.3424 0 8.81042 1.01257 8.11401 2.53601C6.54724 1.95068 4.74609 2.31812 3.5321 3.5321C2.31812 4.74609 1.95068 6.5448 2.53601 8.11401C1.01257 8.81042 0 10.3424 0 12.0593ZM3.55225 9.07349C3.74084 9.02405 3.89587 8.88855 3.97034 8.7085C4.0448 8.52783 4.03137 8.32336 3.93311 8.15491C3.22754 6.94336 3.4259 5.40588 4.41589 4.41589C5.40588 3.42529 6.94275 3.22693 8.15491 3.93311C8.32275 4.03076 8.52783 4.0448 8.7085 3.97034C8.88855 3.89587 9.02405 3.74084 9.07349 3.55225C9.43115 2.19666 10.6586 1.25 12.0593 1.25C13.4595 1.25 14.6869 2.19666 15.0446 3.55225C15.094 3.74084 15.2295 3.89587 15.4095 3.97034C15.5896 4.0448 15.7953 4.03076 15.9631 3.93311C17.1759 3.22754 18.7115 3.4259 19.7021 4.41589C20.6921 5.40588 20.8911 6.94275 20.1849 8.15491C20.0867 8.32336 20.0732 8.52783 20.1477 8.7085C20.2222 8.88855 20.3772 9.02405 20.5658 9.07349C21.9214 9.43115 22.868 10.6586 22.868 12.0593C22.868 13.4595 21.9214 14.6869 20.5658 15.0446C20.3772 15.094 20.2222 15.2295 20.1477 15.4095C20.0732 15.5902 20.0867 15.7947 20.1849 15.9631C20.8911 17.1753 20.6921 18.7122 19.7021 19.7021C18.7115 20.6927 17.1753 20.8905 15.9631 20.1849C15.7953 20.0867 15.5896 20.0732 15.4095 20.1477C15.2295 20.2222 15.094 20.3772 15.0446 20.5658C14.6869 21.9214 13.4595 22.868 12.0593 22.868C10.6586 22.868 9.43115 21.9214 9.07349 20.5658C9.02405 20.3772 8.88855 20.2222 8.7085 20.1477C8.63159 20.116 8.55042 20.1001 8.46924 20.1001C8.35999 20.1001 8.25134 20.1288 8.15491 20.1849C6.94336 20.8911 5.40649 20.6927 4.41589 19.7021C3.4259 18.7122 3.22754 17.1747 3.93311 15.9631C4.03137 15.7947 4.0448 15.5902 3.97034 15.4095C3.89587 15.2295 3.74084 15.094 3.55225 15.0446C2.19666 14.6869 1.25 13.4595 1.25 12.0593C1.25 10.6586 2.19666 9.43115 3.55225 9.07349Z" fill="#ABCDD0"/>
<path d="M7.49841 14.3866C7.49414 14.9848 7.72424 15.5469 8.14783 15.9711C8.56714 16.3892 9.12256 16.6193 9.71338 16.6193C9.71948 16.6193 9.72498 16.6193 9.73047 16.6193C9.99353 16.6321 10.2865 16.7334 10.4806 16.93C10.8999 17.356 11.4608 17.5904 12.059 17.5904C12.6577 17.5904 13.218 17.3554 13.6373 16.9294C13.829 16.7353 14.1061 16.6193 14.3801 16.6193C14.3887 16.6199 14.396 16.6193 14.4033 16.6193C14.9948 16.6193 15.5502 16.3892 15.9707 15.9699C16.3931 15.5469 16.6232 14.9848 16.6189 14.3872C16.6171 14.1107 16.733 13.8306 16.929 13.6377C17.355 13.2184 17.59 12.6581 17.59 12.0594C17.59 11.4612 17.3556 10.9003 16.929 10.4804C16.733 10.2875 16.6171 10.0074 16.6189 9.73148C16.6232 9.13333 16.3931 8.5712 15.9695 8.147C15.5502 7.72891 14.9948 7.49881 14.4027 7.49881C14.3942 7.49942 14.3856 7.49881 14.3783 7.49881C14.1055 7.49881 13.829 7.38345 13.6367 7.18814C12.7981 6.33609 11.3223 6.33548 10.48 7.18875C10.2883 7.38345 10.0118 7.49881 9.73901 7.49881C9.72742 7.49881 9.72192 7.49881 9.71399 7.49881C9.12256 7.49881 8.56714 7.72891 8.14661 8.14822C7.72424 8.5712 7.49414 9.13333 7.49841 9.73148C7.50085 10.0074 7.38489 10.2869 7.18774 10.481C6.76172 10.9015 6.52734 11.4618 6.52734 12.0594C6.52734 12.6569 6.76172 13.2178 7.18835 13.6377C7.38489 13.8312 7.50085 14.1107 7.49841 14.3866ZM8.06482 11.3715C8.50427 10.9388 8.7533 10.3376 8.74841 9.72171C8.74658 9.46109 8.84729 9.21573 9.0304 9.03201C9.2135 8.84891 9.45642 8.74881 9.71399 8.74881C9.72192 8.7482 9.73108 8.7482 9.73962 8.74881C10.3488 8.74881 10.9426 8.5004 11.3705 8.06644C11.7379 7.69412 12.3812 7.69534 12.7462 8.06522C13.179 8.50467 13.771 8.74698 14.396 8.74881C14.6646 8.73721 14.9026 8.84708 15.0857 9.03079C15.27 9.21573 15.3707 9.46109 15.3689 9.72232C15.3646 10.3388 15.6136 10.9394 16.0519 11.3709C16.2374 11.554 16.34 11.7987 16.34 12.0594C16.34 12.32 16.238 12.5641 16.0525 12.7466C15.6136 13.1787 15.3646 13.7793 15.3689 14.3964C15.3707 14.657 15.27 14.9024 15.0869 15.0861C14.9038 15.2692 14.6609 15.3693 14.4027 15.3693C14.3954 15.3687 14.3868 15.3687 14.3801 15.3693C13.7692 15.3693 13.1747 15.6177 12.7462 16.0529C12.3812 16.424 11.7361 16.4228 11.3711 16.0529C10.9426 15.6177 10.3481 15.3693 9.73718 15.3693C9.73169 15.3693 9.72681 15.3693 9.72131 15.3693C9.46436 15.3675 9.21533 15.271 9.03162 15.0873C8.84729 14.9024 8.74658 14.657 8.74841 14.3964C8.7533 13.7805 8.50427 13.1794 8.06543 12.7472C7.87988 12.5641 7.77734 12.32 7.77734 12.0594C7.77734 11.7987 7.87988 11.5546 8.06482 11.3715Z" fill="#ABCDD0"/>
<path d="M38.1068 33.1665C35.3822 33.1665 33.166 35.3827 33.166 38.1073C33.166 40.8319 35.3822 43.0481 38.1068 43.0481C40.8314 43.0481 43.0476 40.8319 43.0476 38.1073C43.0476 35.3827 40.8314 33.1665 38.1068 33.1665ZM38.1068 41.7981C36.0719 41.7981 34.416 40.1422 34.416 38.1073C34.416 36.0724 36.0719 34.4165 38.1068 34.4165C40.1417 34.4165 41.7976 36.0724 41.7976 38.1073C41.7976 40.1422 40.1417 41.7981 38.1068 41.7981Z" fill="#ABCDD0"/>
<path d="M47.5039 34.2151C48.077 32.6672 47.7139 30.8942 46.517 29.6979C45.3201 28.5016 43.547 28.139 41.9998 28.7109C41.3107 27.2113 39.8 26.2146 38.1075 26.2146C36.415 26.2146 34.9044 27.2113 34.2153 28.7109C32.6669 28.1384 30.8944 28.501 29.6981 29.6979C28.5012 30.8942 28.1381 32.6672 28.7112 34.2151C27.2115 34.9042 26.2148 36.4148 26.2148 38.1073C26.2148 39.7998 27.2115 41.3104 28.7112 41.9995C28.1381 43.5474 28.5012 45.3204 29.6981 46.5167C30.8944 47.7136 32.6669 48.075 34.2153 47.5037C34.9044 49.0033 36.415 50 38.1075 50C39.8 50 41.3107 49.0033 41.9998 47.5037C43.547 48.075 45.3201 47.7136 46.517 46.5167C47.7139 45.3204 48.077 43.5474 47.5039 41.9995C49.0035 41.3104 50.0002 39.7998 50.0002 38.1073C50.0002 36.4148 49.0035 34.9042 47.5039 34.2151ZM46.4883 41.0406C46.2997 41.0901 46.1447 41.2256 46.0702 41.4056C45.9957 41.5857 46.0092 41.7908 46.1074 41.9592C46.8008 43.1494 46.6055 44.66 45.6332 45.6329C44.6603 46.6046 43.1509 46.8005 41.9595 46.1072C41.7916 46.0095 41.5865 45.9955 41.4059 46.0699C41.2258 46.1444 41.0903 46.2994 41.0409 46.488C40.6893 47.8198 39.4833 48.75 38.1075 48.75C36.7318 48.75 35.5258 47.8198 35.1742 46.488C35.1248 46.2994 34.9893 46.1444 34.8092 46.0699C34.7323 46.0382 34.6511 46.0223 34.5699 46.0223C34.4607 46.0223 34.3521 46.051 34.2556 46.1072C33.0654 46.8005 31.5548 46.6058 30.5819 45.6329C29.6096 44.66 29.4143 43.1494 30.1077 41.9592C30.2059 41.7908 30.2194 41.5857 30.1449 41.4056C30.0704 41.2256 29.9154 41.0901 29.7268 41.0406C28.395 40.6891 27.4648 39.483 27.4648 38.1073C27.4648 36.7316 28.395 35.5255 29.7268 35.174C29.9154 35.1245 30.0704 34.989 30.1449 34.809C30.2194 34.6289 30.2059 34.4238 30.1077 34.2554C29.4143 33.0652 29.6096 31.5546 30.5819 30.5817C31.5548 29.6082 33.0654 29.4135 34.2556 30.1074C34.4235 30.2051 34.6285 30.2191 34.8092 30.1447C34.9893 30.0702 35.1248 29.9152 35.1742 29.7266C35.5258 28.3948 36.7318 27.4646 38.1075 27.4646C39.4833 27.4646 40.6893 28.3948 41.0409 29.7266C41.0903 29.9152 41.2258 30.0702 41.4059 30.1447C41.5865 30.2191 41.7916 30.2051 41.9595 30.1074C43.1515 29.4128 44.6603 29.61 45.6332 30.5817C46.6055 31.5546 46.8008 33.0652 46.1074 34.2554C46.0092 34.4238 45.9957 34.6289 46.0702 34.809C46.1447 34.989 46.2997 35.1245 46.4883 35.174C47.8201 35.5255 48.7502 36.7316 48.7502 38.1073C48.7502 39.483 47.8201 40.6891 46.4883 41.0406Z" fill="#ABCDD0"/>
<path d="M11.9753 41.7548C14.0322 41.7548 15.7052 40.0818 15.7052 38.0255C15.7052 35.9686 14.0322 34.2957 11.9753 34.2957C9.91907 34.2957 8.24609 35.9686 8.24609 38.0255C8.24609 40.0818 9.91907 41.7548 11.9753 41.7548ZM11.9753 35.5457C13.3425 35.5457 14.4552 36.6583 14.4552 38.0255C14.4552 39.3927 13.3425 40.5048 11.9753 40.5048C10.6082 40.5048 9.49609 39.3927 9.49609 38.0255C9.49609 36.6583 10.6082 35.5457 11.9753 35.5457Z" fill="#ABCDD0"/>
<path d="M2.51587 41.9434C1.93665 43.501 2.30164 45.2869 3.50708 46.4929C4.71252 47.699 6.49841 48.0627 8.05664 47.4841C8.74878 48.9954 10.2698 50 11.9745 50C13.6792 50 15.2002 48.9954 15.8923 47.4841C17.4512 48.0627 19.2358 47.6984 20.4419 46.4929C21.6473 45.2875 22.0129 43.5016 21.4337 41.9434C22.9443 41.2512 23.949 39.7296 23.949 38.0255C23.949 36.3214 22.9443 34.7998 21.4337 34.1077C22.0123 32.5488 21.6473 30.7635 20.4419 29.5581C19.2371 28.3527 17.4536 27.9889 15.8923 28.5663C15.2002 27.0557 13.6786 26.051 11.9745 26.051C10.2704 26.051 8.74878 27.0557 8.05664 28.5663C6.49719 27.9871 4.71252 28.3521 3.50708 29.5581C2.30225 30.7635 1.93665 32.5494 2.51587 34.1077C1.00464 34.7998 0 36.3208 0 38.0255C0 39.7302 1.00464 41.2512 2.51587 41.9434ZM3.5321 35.0665C3.7207 35.0171 3.87573 34.8816 3.9502 34.7015C4.02466 34.5209 4.01123 34.3164 3.91296 34.1473C3.21289 32.9474 3.41003 31.4233 4.39087 30.4419C5.37231 29.4617 6.89575 29.2627 8.09631 29.9634C8.26538 30.061 8.46985 30.0751 8.65051 30.0006C8.83057 29.9261 8.96606 29.7711 9.0155 29.5825C9.37012 28.2391 10.5865 27.301 11.9745 27.301C13.3624 27.301 14.5789 28.2391 14.9335 29.5825C14.9829 29.7711 15.1184 29.9261 15.2985 30.0006C15.4785 30.0751 15.6836 30.061 15.8521 29.9634C17.0532 29.2633 18.5767 29.4604 19.5581 30.4419C20.5396 31.4233 20.7361 32.9468 20.0366 34.1479C19.9384 34.3164 19.9249 34.5209 19.9994 34.7015C20.0739 34.8816 20.2289 35.0171 20.4175 35.0665C21.7609 35.4211 22.699 36.6376 22.699 38.0255C22.699 39.4135 21.7609 40.6299 20.4175 40.9845C20.2289 41.0339 20.0739 41.1694 19.9994 41.3495C19.9249 41.5302 19.9384 41.7346 20.0366 41.9037C20.7361 43.1036 20.5396 44.6277 19.5581 45.6091C18.576 46.5912 17.0532 46.7871 15.8527 46.087C15.6836 45.9894 15.4785 45.9753 15.2985 46.0498C15.1184 46.1243 14.9829 46.2793 14.9335 46.4679C14.5789 47.8113 13.3624 48.75 11.9745 48.75C10.5865 48.75 9.37012 47.8113 9.0155 46.4679C8.96606 46.2793 8.83057 46.1243 8.65051 46.0498C8.57361 46.0181 8.49243 46.0022 8.41125 46.0022C8.302 46.0022 8.19336 46.0309 8.09631 46.087C6.89636 46.7865 5.37292 46.5906 4.39087 45.6091C3.40942 44.6271 3.21289 43.1036 3.91296 41.9037C4.01123 41.7352 4.02466 41.5302 3.9502 41.3495C3.87573 41.1694 3.7207 41.0339 3.5321 40.9845C2.18872 40.6299 1.25 39.4135 1.25 38.0255C1.25 36.6376 2.18872 35.4211 3.5321 35.0665Z" fill="#ABCDD0"/>
<path d="M5.39355 40.7513C5.06763 41.825 5.34534 43.0176 6.16443 43.8361C6.98291 44.6545 8.17432 44.9329 9.24915 44.6069C9.77771 45.5963 10.8171 46.2427 11.975 46.2427C13.1328 46.2427 14.1729 45.5963 14.7014 44.6069C15.7726 44.9329 16.9664 44.6558 17.7855 43.8361C18.6046 43.0176 18.8829 41.825 18.5564 40.7513C19.5464 40.2234 20.1927 39.1833 20.1927 38.0255C20.1927 36.8677 19.5458 35.8276 18.5564 35.2991C18.8829 34.2261 18.6046 33.0334 17.7855 32.215C16.967 31.3965 15.7756 31.1182 14.7014 31.4441C14.1729 30.4547 13.1328 29.8077 11.975 29.8077C10.8171 29.8077 9.7771 30.4541 9.24915 31.4441C8.17371 31.1176 6.98169 31.3965 6.16443 32.215C5.34534 33.0341 5.06763 34.2261 5.39355 35.2991C4.40417 35.8276 3.75781 36.8677 3.75781 38.0255C3.75781 39.1833 4.40417 40.2228 5.39355 40.7513ZM6.37988 36.2457C6.56848 36.1963 6.72351 36.0608 6.79797 35.8807C6.87244 35.7001 6.85901 35.495 6.76074 35.3265C6.3396 34.6051 6.45801 33.689 7.04822 33.0988C7.63904 32.5085 8.55579 32.3907 9.27661 32.8113C9.44568 32.9089 9.65015 32.923 9.83081 32.8485C10.0109 32.774 10.1464 32.619 10.1958 32.4304C10.4088 31.6223 11.1406 31.0577 11.975 31.0577C12.8099 31.0577 13.5417 31.6223 13.7548 32.4304C13.8042 32.619 13.9397 32.774 14.1198 32.8485C14.2998 32.923 14.5049 32.9089 14.674 32.8113C15.396 32.3901 16.3115 32.5085 16.9017 33.0988C17.4919 33.689 17.6104 34.6051 17.1892 35.3265C17.0909 35.4956 17.0775 35.7001 17.152 35.8807C17.2264 36.0608 17.3815 36.1963 17.5701 36.2457C18.3782 36.4587 18.9427 37.1906 18.9427 38.0255C18.9427 38.8599 18.3782 39.5917 17.5701 39.8047C17.3815 39.8541 17.2264 39.9896 17.152 40.1697C17.0775 40.3503 17.0909 40.5548 17.1892 40.7239C17.6104 41.4459 17.4919 42.3621 16.9017 42.9523C16.3121 43.5431 15.3954 43.6609 14.674 43.2397C14.5049 43.1421 14.2998 43.1281 14.1198 43.2025C13.9397 43.277 13.8042 43.432 13.7548 43.6206C13.5417 44.4281 12.8099 44.9927 11.975 44.9927C11.1406 44.9927 10.4088 44.4281 10.1958 43.6206C10.1464 43.432 10.0109 43.277 9.83081 43.2025C9.75391 43.1708 9.67273 43.1549 9.59155 43.1549C9.4823 43.1549 9.37366 43.1836 9.27661 43.2397C8.55396 43.6603 7.63782 43.5413 7.04822 42.9523C6.45801 42.3621 6.3396 41.4459 6.76074 40.7239C6.85901 40.5548 6.87244 40.3503 6.79797 40.1697C6.72351 39.9896 6.56848 39.8541 6.37988 39.8047C5.57239 39.5917 5.00781 38.8599 5.00781 38.0255C5.00781 37.1906 5.57239 36.4587 6.37988 36.2457Z" fill="#ABCDD0"/>
<path d="M38.1069 6.66077C35.2218 6.66077 32.875 9.00757 32.875 11.8927C32.875 14.7778 35.2218 17.1246 38.1069 17.1246C40.9921 17.1246 43.3389 14.7778 43.3389 11.8927C43.3389 9.00757 40.9921 6.66077 38.1069 6.66077ZM38.1069 15.8746C35.9115 15.8746 34.125 14.0881 34.125 11.8927C34.125 9.69727 35.9115 7.91077 38.1069 7.91077C40.3024 7.91077 42.0889 9.69727 42.0889 11.8927C42.0889 14.0881 40.3024 15.8746 38.1069 15.8746Z" fill="#ABCDD0"/>
<path d="M47.5039 8.00049C48.077 6.45325 47.7133 4.68018 46.517 3.48328C45.3201 2.28699 43.547 1.92383 41.9998 2.49634C41.3107 0.996704 39.8 0 38.1075 0C36.415 0 34.9044 0.996704 34.2153 2.49634C32.6669 1.92383 30.895 2.28699 29.6981 3.48328C28.5018 4.68018 28.1381 6.45325 28.7112 8.00049C27.2115 8.68958 26.2148 10.2002 26.2148 11.8927C26.2148 13.5852 27.2115 15.0958 28.7112 15.7849C28.1381 17.3328 28.5012 19.1058 29.6981 20.3021C30.8944 21.4984 32.6669 21.861 34.2153 21.2891C34.9044 22.7887 36.415 23.7854 38.1075 23.7854C39.8 23.7854 41.3107 22.7887 41.9998 21.2891C43.547 21.861 45.3201 21.4984 46.517 20.3021C47.7139 19.1058 48.077 17.3328 47.5039 15.7849C49.0035 15.0958 50.0002 13.5852 50.0002 11.8927C50.0002 10.2002 49.0035 8.68958 47.5039 8.00049ZM46.4883 14.826C46.2997 14.8755 46.1447 15.011 46.0702 15.191C45.9957 15.3711 46.0092 15.5762 46.1074 15.7446C46.8008 16.9348 46.6055 18.4454 45.6332 19.4183C44.6603 20.39 43.1509 20.5859 41.9595 19.8926C41.7916 19.7949 41.5865 19.7809 41.4059 19.8553C41.2258 19.9298 41.0903 20.0848 41.0409 20.2734C40.6893 21.6052 39.4833 22.5354 38.1075 22.5354C36.7318 22.5354 35.5258 21.6052 35.1742 20.2734C35.1248 20.0848 34.9893 19.9298 34.8092 19.8553C34.7323 19.8236 34.6511 19.8077 34.5699 19.8077C34.4607 19.8077 34.3521 19.8364 34.2556 19.8926C33.0654 20.5859 31.5548 20.3912 30.5819 19.4183C29.6096 18.4454 29.4143 16.9348 30.1077 15.7446C30.2059 15.5762 30.2194 15.3711 30.1449 15.191C30.0704 15.011 29.9154 14.8755 29.7268 14.826C28.395 14.4745 27.4648 13.2684 27.4648 11.8927C27.4648 10.517 28.395 9.31091 29.7268 8.95935C29.9154 8.90991 30.0704 8.77441 30.1449 8.59436C30.2194 8.41431 30.2059 8.20923 30.1077 8.04077C29.4143 6.85059 29.6096 5.33997 30.5819 4.36707C31.5548 3.39355 33.0654 3.19885 34.2556 3.89282C34.4235 3.99048 34.6285 4.00452 34.8092 3.93005C34.9893 3.85559 35.1248 3.70056 35.1742 3.51196C35.5258 2.18018 36.7318 1.25 38.1075 1.25C39.4833 1.25 40.6893 2.18018 41.0409 3.51196C41.0903 3.70056 41.2258 3.85559 41.4059 3.93005C41.5865 4.00452 41.7916 3.99048 41.9595 3.89282C43.1515 3.19824 44.6603 3.39417 45.6332 4.36707C46.6055 5.33997 46.8008 6.85059 46.1074 8.04077C46.0092 8.20923 45.9957 8.41431 46.0702 8.59436C46.1447 8.77441 46.2997 8.90991 46.4883 8.95935C47.8201 9.31091 48.7502 10.517 48.7502 11.8927C48.7502 13.2684 47.8201 14.4745 46.4883 14.826Z" fill="#ABCDD0"/>
<path d="M38.1074 17.7997C37.762 17.7997 37.4824 18.0792 37.4824 18.4247V19.5044C37.4824 19.8499 37.762 20.1294 38.1074 20.1294C38.4529 20.1294 38.7324 19.8499 38.7324 19.5044V18.4247C38.7324 18.0792 38.4529 17.7997 38.1074 17.7997Z" fill="#ABCDD0"/>
<path d="M43.1685 16.0699C42.9243 15.8258 42.5288 15.8258 42.2847 16.0699C42.0405 16.3141 42.0405 16.7096 42.2847 16.9537L43.0482 17.7173C43.1703 17.8394 43.3302 17.9004 43.4901 17.9004C43.65 17.9004 43.8099 17.8394 43.932 17.7173C44.1761 17.4731 44.1761 17.0776 43.932 16.8335L43.1685 16.0699Z" fill="#ABCDD0"/>
<path d="M45.7184 11.2677H44.6387C44.2932 11.2677 44.0137 11.5472 44.0137 11.8927C44.0137 12.2382 44.2932 12.5177 44.6387 12.5177H45.7184C46.0638 12.5177 46.3434 12.2382 46.3434 11.8927C46.3434 11.5472 46.0638 11.2677 45.7184 11.2677Z" fill="#ABCDD0"/>
<path d="M42.7266 7.89856C42.8865 7.89856 43.0464 7.83752 43.1685 7.71545L43.932 6.9519C44.1761 6.70776 44.1761 6.31226 43.932 6.06812C43.6879 5.82397 43.2924 5.82397 43.0482 6.06812L42.2847 6.83167C42.0405 7.07581 42.0405 7.47131 42.2847 7.71545C42.4067 7.83752 42.5667 7.89856 42.7266 7.89856Z" fill="#ABCDD0"/>
<path d="M38.1074 5.98572C38.4529 5.98572 38.7324 5.70618 38.7324 5.36072V4.28101C38.7324 3.93555 38.4529 3.65601 38.1074 3.65601C37.762 3.65601 37.4824 3.93555 37.4824 4.28101V5.36072C37.4824 5.70618 37.762 5.98572 38.1074 5.98572Z" fill="#ABCDD0"/>
<path d="M33.0463 7.71545C33.1683 7.83752 33.3282 7.89856 33.4882 7.89856C33.6481 7.89856 33.808 7.83752 33.9301 7.71545C34.1742 7.47131 34.1742 7.07581 33.9301 6.83167L33.1665 6.06812C32.9224 5.82397 32.5269 5.82397 32.2827 6.06812C32.0386 6.31226 32.0386 6.70776 32.2827 6.9519L33.0463 7.71545Z" fill="#ABCDD0"/>
<path d="M31.5758 11.2677H30.4961C30.1506 11.2677 29.8711 11.5472 29.8711 11.8927C29.8711 12.2382 30.1506 12.5177 30.4961 12.5177H31.5758C31.9213 12.5177 32.2008 12.2382 32.2008 11.8927C32.2008 11.5472 31.9213 11.2677 31.5758 11.2677Z" fill="#ABCDD0"/>
<path d="M33.0463 16.0699L32.2827 16.8335C32.0386 17.0776 32.0386 17.4731 32.2827 17.7173C32.4048 17.8394 32.5647 17.9004 32.7246 17.9004C32.8845 17.9004 33.0444 17.8394 33.1665 17.7173L33.9301 16.9537C34.1742 16.7096 34.1742 16.3141 33.9301 16.0699C33.6859 15.8258 33.2904 15.8258 33.0463 16.0699Z" fill="#ABCDD0"/>
</svg>
