<?xml version="1.0" standalone="no"?>
<!DOCTYPE svg PUBLIC "-//W3C//DTD SVG 20010904//EN"
 "http://www.w3.org/TR/2001/REC-SVG-20010904/DTD/svg10.dtd">
<svg version="1.0" xmlns="http://www.w3.org/2000/svg"
 width="80.000000pt" height="80.000000pt" viewBox="0 0 80.000000 80.000000"
 preserveAspectRatio="xMidYMid meet">
<metadata>
Created by potrace 1.11, written by Peter Selinger 2001-2013
</metadata>
<g transform="translate(0.000000,80.000000) scale(0.100000,-0.100000)"
fill="#000000" stroke="none">
<path d="M358 793 c17 -2 47 -2 65 0 17 2 3 4 -33 4 -36 0 -50 -2 -32 -4z"/>
<path d="M192 735 c8 -9 335 -12 403 -5 35 4 -36 8 -174 9 -129 0 -232 -1
-229 -4z"/>
<path d="M210 679 c-105 -8 -43 -12 205 -13 218 -1 372 8 230 14 -136 5 -361
5 -435 -1z"/>
<path d="M120 620 l-45 -5 35 -6 c80 -14 189 -11 212 6 22 15 18 16 -67 13
-50 -2 -110 -5 -135 -8z"/>
<path d="M490 614 c27 -12 56 -14 129 -10 94 6 134 15 70 17 -19 0 -79 2 -134
4 -97 4 -99 4 -65 -11z"/>
<path d="M135 560 l-70 -5 45 -8 c25 -4 80 -9 123 -11 67 -3 77 -1 75 13 -4
18 -47 20 -173 11z"/>
<path d="M595 550 c7 -12 42 -12 70 0 15 6 8 9 -28 9 -30 1 -46 -3 -42 -9z"/>
<path d="M165 502 c-33 -2 -63 -7 -68 -11 -10 -10 154 -17 268 -12 27 1 28 3
11 13 -19 11 -107 15 -211 10z"/>
<path d="M347 444 c-1 -2 -41 -4 -87 -5 -108 -2 -152 -17 -60 -20 169 -5 287
-5 310 1 l25 7 -25 7 c-25 6 -158 14 -163 10z"/>
<path d="M396 383 c-1 -1 -39 -3 -84 -4 -87 -2 -115 -18 -34 -20 263 -7 425
-1 372 14 -22 6 -248 15 -254 10z"/>
<path d="M430 309 c24 -10 132 -13 265 -9 46 2 54 4 35 10 -39 12 -331 11
-300 -1z"/>
<path d="M125 251 c-26 -7 -24 -8 23 -12 28 -2 52 -1 52 4 0 4 -4 7 -9 7 -5 0
-15 2 -23 4 -7 2 -26 0 -43 -3z"/>
<path d="M526 245 c5 -13 18 -15 68 -11 33 2 86 5 116 6 84 3 17 16 -97 19
-81 2 -92 0 -87 -14z"/>
<path d="M95 190 c-40 -7 -40 -7 15 -10 97 -5 513 -6 570 -1 l55 5 -50 7 c-27
3 -84 4 -125 2 -87 -5 -172 -5 -320 0 -58 2 -123 0 -145 -3z"/>
<path d="M115 129 c-49 -6 -49 -6 20 -9 139 -5 451 -5 505 1 l55 6 -55 3
c-106 5 -475 5 -525 -1z"/>
<path d="M183 64 c8 -8 436 -8 444 0 4 3 -96 6 -222 6 -126 0 -226 -3 -222 -6z"/>
<path d="M387 3 c18 -2 50 -2 70 0 21 2 7 4 -32 4 -38 0 -55 -2 -38 -4z"/>
<path d="M508 3 c7 -3 16 -2 19 1 4 3 -2 6 -13 5 -11 0 -14 -3 -6 -6z"/>
</g>
</svg>
